hof-0.30-acknowledgements 34.71
hof-0.30-administratively 34.71
hof-0.30-Australopithecus 34.71
hof-0.30-bloodthirstiness 34.71
hof-0.30-cinematographers 23.14
hof-0.30-counterespionage 46.28
hof-0.30-Czechoslovakians 34.71
hof-0.30-departmentalized 23.14
hof-0.30-disqualification 46.28
hof-0.30-enthusiastically 23.14
hof-0.30-flibbertigibbets 34.71
hof-0.30-gastrointestinal 46.28
hof-0.30-hospitalizations 11.57
hof-0.30-hydroelectricity 34.71
hof-0.30-intellectualized 34.71
hof-0.30-lightheartedness 34.71
hof-0.30-melodramatically 34.71
hof-0.30-multimillionaire 23.14
hof-0.30-nationalizations 34.71
hof-0.30-neurotransmitter 23.14
hof-0.30-overcompensating 34.71
hof-0.30-photojournalists 46.28
hof-0.30-predetermination 34.71
hof-0.30-rambunctiousness 23.14
hof-0.30-sentimentalizing 34.71
hof-0.30-synchronizations 34.71
hof-0.30-teleconferencing 34.71
hof-0.30-transcendentally 23.14
hof-0.30-unscrupulousness 34.71
hof-0.30-whatchamacallits 34.71
hof-0.45-acknowledgements 46.28
hof-0.45-administratively 46.28
hof-0.45-Australopithecus 46.28
hof-0.45-bloodthirstiness 52.89
hof-0.45-cinematographers 34.71
hof-0.45-counterespionage 51.23
hof-0.45-Czechoslovakians 46.28
hof-0.45-departmentalized 46.28
hof-0.45-disqualification 50.41
hof-0.45-enthusiastically 52.89
hof-0.45-flibbertigibbets 50.41
hof-0.45-gastrointestinal 46.28
hof-0.45-hospitalizations 34.71
hof-0.45-hydroelectricity 46.28
hof-0.45-intellectualized 46.28
hof-0.45-lightheartedness 57.02
hof-0.45-melodramatically 46.28
hof-0.45-multimillionaire 46.28
hof-0.45-nationalizations 46.28
hof-0.45-neurotransmitter 46.28
hof-0.45-overcompensating 46.28
hof-0.45-photojournalists 52.06
hof-0.45-predetermination 46.28
hof-0.45-rambunctiousness 34.71
hof-0.45-sentimentalizing 46.28
hof-0.45-synchronizations 49.58
hof-0.45-teleconferencing 52.06
hof-0.45-transcendentally 47.93
hof-0.45-unscrupulousness 46.28
hof-0.45-whatchamacallits 46.28
hof-0.60-acknowledgements 63.63
hof-0.60-administratively 56.19
hof-0.60-Australopithecus 58.67
hof-0.60-bloodthirstiness 58.67
hof-0.60-cinematographers 51.23
hof-0.60-counterespionage 59.50
hof-0.60-Czechoslovakians 55.37
hof-0.60-departmentalized 53.71
hof-0.60-disqualification 59.50
hof-0.60-enthusiastically 57.85
hof-0.60-flibbertigibbets 59.50
hof-0.60-gastrointestinal 62.80
hof-0.60-hospitalizations 52.89
hof-0.60-hydroelectricity 55.37
hof-0.60-intellectualized 60.33
hof-0.60-lightheartedness 66.94
hof-0.60-melodramatically 52.06
hof-0.60-multimillionaire 56.19
hof-0.60-nationalizations 49.58
hof-0.60-neurotransmitter 48.76
hof-0.60-overcompensating 54.54
hof-0.60-photojournalists 59.50
hof-0.60-predetermination 52.89
hof-0.60-rambunctiousness 46.28
hof-0.60-sentimentalizing 50.41
hof-0.60-synchronizations 66.11
hof-0.60-teleconferencing 67.76
hof-0.60-transcendentally 62.80
hof-0.60-unscrupulousness 59.50
hof-0.60-whatchamacallits 57.02
hof-0.75-acknowledgements 76.03
hof-0.75-administratively 67.76
hof-0.75-Australopithecus 78.51
hof-0.75-bloodthirstiness 69.42
hof-0.75-cinematographers 67.76
hof-0.75-counterespionage 78.51
hof-0.75-Czechoslovakians 72.72
hof-0.75-departmentalized 72.72
hof-0.75-disqualification 71.07
hof-0.75-enthusiastically 74.38
hof-0.75-flibbertigibbets 71.07
hof-0.75-gastrointestinal 76.03
hof-0.75-hospitalizations 74.38
hof-0.75-hydroelectricity 78.51
hof-0.75-intellectualized 73.55
hof-0.75-lightheartedness 76.85
hof-0.75-melodramatically 72.72
hof-0.75-multimillionaire 68.59
hof-0.75-nationalizations 65.28
hof-0.75-neurotransmitter 59.50
hof-0.75-overcompensating 65.28
hof-0.75-photojournalists 68.59
hof-0.75-predetermination 67.76
hof-0.75-rambunctiousness 67.76
hof-0.75-sentimentalizing 56.19
hof-0.75-synchronizations 71.07
hof-0.75-teleconferencing 76.85
hof-0.75-transcendentally 75.20
hof-0.75-unscrupulousness 67.76
hof-0.75-whatchamacallits 74.38
hof-0.90-acknowledgements 86.77
hof-0.90-administratively 76.03
hof-0.90-Australopithecus 90.90
hof-0.90-bloodthirstiness 82.64
hof-0.90-cinematographers 79.33
hof-0.90-counterespionage 88.42
hof-0.90-Czechoslovakians 85.95
hof-0.90-departmentalized 84.29
hof-0.90-disqualification 83.47
hof-0.90-enthusiastically 88.42
hof-0.90-flibbertigibbets 83.47
hof-0.90-gastrointestinal 83.47
hof-0.90-hospitalizations 90.08
hof-0.90-hydroelectricity 82.64
hof-0.90-intellectualized 81.81
hof-0.90-lightheartedness 84.29
hof-0.90-melodramatically 85.12
hof-0.90-multimillionaire 81.81
hof-0.90-nationalizations 88.42
hof-0.90-neurotransmitter 78.51
hof-0.90-overcompensating 77.68
hof-0.90-photojournalists 90.08
hof-0.90-predetermination 76.03
hof-0.90-rambunctiousness 76.85
hof-0.90-sentimentalizing 79.33
hof-0.90-synchronizations 87.60
hof-0.90-teleconferencing 87.60
hof-0.90-transcendentally 83.47
hof-0.90-unscrupulousness 77.68
hof-0.90-whatchamacallits 80.99
