2019-12-23 18:29:14   [1408337 ms] MUTANT_N {ORDER (OPERATOR, LOCATION, ATTRIBUTE)+}, FITNESS, [COMPARISON RESULTS]
2019-12-23 18:29:14   [1408337 ms] MUTANT_0{1 (RRO, 6, 5)}, 605.0, [0 0 0 0 0]
2019-12-23 18:29:14   [1408337 ms] MUTANT_1{1 (RRO, 2, 4)}, 456.0, [1 0 1 1 1]
2019-12-23 18:29:14   [1408337 ms] MUTANT_2{1 (RTU, 1, 2)}, 605.0, [0 0 0 0 0]
2019-12-23 18:29:14   [1408338 ms] MUTANT_3{1 (RSC, 6, 4)}, 605.0, [0 0 0 0 0]
2019-12-23 18:29:14   [1408338 ms] MUTANT_4{1 (RGR, 1, 2)}, 605.0, [0 0 0 0 0]
2019-12-23 18:29:14   [1408338 ms] MUTANT_5{1 (RSC, 2, 3)}, 430.0, [1 1 2 1 1]
2019-12-23 18:29:14   [1408338 ms] MUTANT_6{1 (RRO, 7, 5)}, 605.0, [0 0 0 0 0]
2019-12-23 18:29:14   [1408339 ms] MUTANT_7{1 (PFP, 1, 1)}, 456.0, [1 0 1 1 1]
2019-12-23 18:29:14   [1408339 ms] MUTANT_8{1 (RRO, 6, 2)}, 605.0, [0 0 0 0 0]
2019-12-23 18:29:14   [1408339 ms] MUTANT_9{1 (RSC, 6, 1)}, 605.0, [0 0 0 0 0]
2019-12-23 18:29:14   [1408339 ms] MUTANT_10{1 (RRO, 5, 5)}, 430.0, [1 1 1 1 1]
2019-12-23 18:29:14   [1408340 ms] MUTANT_11{1 (RSC, 5, 4)}, 605.0, [0 0 0 0 0]
2019-12-23 18:29:14   [1408340 ms] MUTANT_12{1 (RRO, 3, 1)}, 456.0, [1 0 1 1 1]
2019-12-23 18:29:14   [1408340 ms] MUTANT_13{1 (RTU, 3, 2)}, 605.0, [0 0 0 0 0]
2019-12-23 18:29:14   [1408340 ms] MUTANT_14{1 (RRO, 5, 1)}, 430.0, [1 2 2 1 1]
2019-12-23 18:29:14   [1408341 ms] MUTANT_15{1 (RRO, 4, 4)}, 430.0, [1 1 1 1 1]
2019-12-23 18:29:14   [1408341 ms] MUTANT_16{1 (RSC, 4, 3)}, 605.0, [0 0 0 0 0]
2019-12-23 18:29:14   [1408341 ms] MUTANT_17{1 (RRO, 3, 4)}, 456.0, [1 0 1 1 1]
2019-12-23 18:29:14   [1408341 ms] MUTANT_18{1 (RSC, 3, 3)}, 605.0, [0 0 0 0 0]
2019-12-23 18:29:14   [1408342 ms] MUTANT_19{1 (RTU, 4, 2)}, 605.0, [0 0 0 0 0]
2019-12-23 18:29:14   [1408342 ms] MUTANT_20{1 (RRO, 7, 2)}, 605.0, [0 0 0 0 0]
2019-12-23 18:29:14   [1408342 ms] MUTANT_21{1 (WLM, 1, 1)}, 605.0, [0 0 0 0 0]
2019-12-23 18:29:14   [1408342 ms] MUTANT_22{1 (RTU, 5, 2)}, 605.0, [0 0 0 0 0]
2019-12-23 18:29:14   [1408343 ms] MUTANT_23{1 (RTU, 2, 3)}, 605.0, [0 0 0 0 0]
2019-12-23 18:29:14   [1408343 ms] MUTANT_24{1 (RRO, 1, 3)}, 430.0, [1 1 1 1 1]
2019-12-23 18:29:14   [1408343 ms] MUTANT_25{1 (RRO, 5, 4)}, 430.0, [1 1 1 1 1]
2019-12-23 18:29:14   [1408343 ms] MUTANT_26{1 (RRO, 6, 1)}, 605.0, [0 0 0 0 0]
2019-12-23 18:29:14   [1408343 ms] MUTANT_27{1 (RSC, 4, 1)}, 605.0, [0 0 0 0 0]
2019-12-23 18:29:14   [1408344 ms] MUTANT_28{1 (RAO, 1, 2)}, 605.0, [0 0 0 0 0]
2019-12-23 18:29:14   [1408344 ms] MUTANT_29{1 (RSC, 3, 1)}, 605.0, [0 0 0 0 0]
2019-12-23 18:29:14   [1408344 ms] MUTANT_30{1 (WTM, 1, 1)}, 605.0, [0 0 0 0 0]
2019-12-23 18:29:14   [1408344 ms] MUTANT_31{1 (RRO, 2, 3)}, 456.0, [1 0 1 1 1]
2019-12-23 18:29:14   [1408345 ms] MUTANT_32{1 (RTU, 1, 3)}, 605.0, [0 0 0 0 0]
2019-12-23 18:29:14   [1408345 ms] MUTANT_33{1 (RSC, 6, 5)}, 605.0, [0 0 0 0 0]
2019-12-23 18:29:14   [1408345 ms] MUTANT_34{1 (RSC, 3, 4)}, 605.0, [0 0 0 0 0]
2019-12-23 18:29:14   [1408345 ms] MUTANT_35{1 (POM, 2, 1)}, 605.0, [0 0 0 0 0]
2019-12-23 18:29:14   [1408346 ms] MUTANT_36{1 (PNR, 1, 1)}, 430.0, [1 1 1 1 1]
2019-12-23 18:29:14   [1408346 ms] MUTANT_37{1 (PRE, 3, 1)}, 430.0, [1 1 1 1 1]
2019-12-23 18:29:14   [1408346 ms] MUTANT_38{1 (WLM, 1, 2)}, 605.0, [0 0 0 0 0]
2019-12-23 18:29:14   [1408351 ms] MUTANT_39{1 (RTU, 3, 1)}, 605.0, [0 0 0 0 0]
2019-12-23 18:29:14   [1408352 ms] MUTANT_40{1 (WBL, 1, 1)}, 430.0, [1 1 1 1 1]
2019-12-23 18:29:14   [1408352 ms] MUTANT_41{1 (RLO, 3, 1)}, 430.0, [1 1 2 1 1]
2019-12-23 18:29:14   [1408352 ms] MUTANT_42{1 (RNO, 1, 2)}, 605.0, [0 0 0 0 0]
2019-12-23 18:29:14   [1408352 ms] MUTANT_43{1 (RSC, 1, 3)}, 456.0, [1 0 1 1 1]
2019-12-23 18:29:14   [1408352 ms] MUTANT_44{1 (RGR, 1, 1)}, 605.0, [0 0 0 0 0]
2019-12-23 18:29:14   [1408353 ms] MUTANT_45{1 (RRO, 6, 4)}, 605.0, [0 0 0 0 0]
2019-12-23 18:29:14   [1408353 ms] MUTANT_46{1 (RSC, 4, 4)}, 605.0, [0 0 0 0 0]
2019-12-23 18:29:14   [1408353 ms] MUTANT_47{1 (RRO, 3, 3)}, 456.0, [1 0 1 1 1]
2019-12-23 18:29:14   [1408353 ms] MUTANT_48{1 (PNR, 2, 1)}, 605.0, [0 0 0 0 0]
2019-12-23 18:29:14   [1408354 ms] MUTANT_49{1 (POC, 3, 1)}, 430.0, [1 1 1 1 1]
2019-12-23 18:29:14   [1408354 ms] MUTANT_50{1 (PRE, 1, 1)}, 430.0, [1 1 1 1 1]
2019-12-23 18:29:14   [1408354 ms] MUTANT_51{1 (RTU, 4, 1)}, 605.0, [0 0 0 0 0]
2019-12-23 18:29:14   [1408354 ms] MUTANT_52{1 (RTU, 3, 4)}, 605.0, [0 0 0 0 0]
2019-12-23 18:29:14   [1408355 ms] MUTANT_53{1 (WTM, 1, 2)}, 605.0, [0 0 0 0 0]
2019-12-23 18:29:14   [1408355 ms] MUTANT_54{1 (RSC, 3, 5)}, 605.0, [0 0 0 0 0]
2019-12-23 18:29:14   [1408355 ms] MUTANT_55{1 (RSC, 4, 5)}, 605.0, [0 0 0 0 0]
2019-12-23 18:29:14   [1408355 ms] MUTANT_56{1 (RLO, 2, 1)}, 504.0, [0 1 1 1 0]
2019-12-23 18:29:14   [1408356 ms] MUTANT_57{1 (WBT, 1, 1)}, 605.0, [0 0 0 0 0]
2019-12-23 18:29:14   [1408356 ms] MUTANT_58{1 (POC, 2, 1)}, 605.0, [0 0 0 0 0]
2019-12-23 18:29:14   [1408356 ms] MUTANT_59{1 (RTU, 5, 1)}, 605.0, [0 0 0 0 0]
2019-12-23 18:29:14   [1408356 ms] MUTANT_60{1 (RRO, 1, 2)}, 430.0, [1 1 1 1 1]
2019-12-23 18:29:14   [1408357 ms] MUTANT_61{1 (RSC, 1, 1)}, 456.0, [1 0 1 1 1]
2019-12-23 18:29:14   [1408357 ms] MUTANT_62{1 (RRO, 4, 3)}, 605.0, [0 0 0 0 0]
2019-12-23 18:29:14   [1408357 ms] MUTANT_63{1 (RAO, 1, 3)}, 605.0, [0 0 0 0 0]
2019-12-23 18:29:14   [1408357 ms] MUTANT_64{1 (RTU, 4, 4)}, 605.0, [0 0 0 0 0]
2019-12-23 18:29:14   [1408358 ms] MUTANT_65{1 (RTU, 5, 4)}, 430.0, [1 1 1 1 1]
2019-12-23 18:29:14   [1408358 ms] MUTANT_66{1 (RRO, 2, 2)}, 456.0, [1 0 1 1 1]
2019-12-23 18:29:14   [1408358 ms] MUTANT_67{1 (RRO, 7, 4)}, 605.0, [0 0 0 0 0]
2019-12-23 18:29:14   [1408363 ms] MUTANT_68{1 (RTU, 1, 4)}, 605.0, [0 0 0 0 0]
2019-12-23 18:29:14   [1408363 ms] MUTANT_69{1 (RRO, 1, 5)}, 430.0, [1 1 1 1 1]
2019-12-23 18:29:14   [1408363 ms] MUTANT_70{1 (RSC, 6, 2)}, 605.0, [0 0 0 0 0]
2019-12-23 18:29:14   [1408364 ms] MUTANT_71{1 (RSC, 1, 4)}, 605.0, [0 0 0 0 0]
2019-12-23 18:29:14   [1408364 ms] MUTANT_72{1 (RRO, 6, 3)}, 605.0, [0 0 0 0 0]
2019-12-23 18:29:14   [1408364 ms] MUTANT_73{1 (RLO, 4, 1)}, 605.0, [0 0 0 0 0]
2019-12-23 18:29:14   [1408364 ms] MUTANT_74{1 (POM, 1, 1)}, 605.0, [0 0 0 0 0]
2019-12-23 18:29:14   [1408364 ms] MUTANT_75{1 (RTU, 2, 1)}, 605.0, [0 0 0 0 0]
2019-12-23 18:29:14   [1408365 ms] MUTANT_76{1 (RSC, 5, 5)}, 605.0, [0 0 0 0 0]
2019-12-23 18:29:14   [1408365 ms] MUTANT_77{1 (RLO, 1, 1)}, 430.0, [1 1 1 1 1]
2019-12-23 18:29:14   [1408365 ms] MUTANT_78{1 (RSC, 2, 1)}, 430.0, [1 1 2 1 1]
2019-12-23 18:29:14   [1408365 ms] MUTANT_79{1 (PRE, 2, 1)}, 430.0, [1 1 1 1 1]
2019-12-23 18:29:14   [1408366 ms] MUTANT_80{1 (RRO, 2, 5)}, 456.0, [1 0 1 1 1]
2019-12-23 18:29:14   [1408370 ms] MUTANT_81{1 (RSC, 2, 4)}, 605.0, [0 0 0 0 0]
2019-12-23 18:29:14   [1408370 ms] MUTANT_82{1 (RTU, 1, 1)}, 605.0, [0 0 0 0 0]
2019-12-23 18:29:14   [1408371 ms] MUTANT_83{1 (RSC, 5, 2)}, 605.0, [0 0 0 0 0]
2019-12-23 18:29:14   [1408371 ms] MUTANT_84{1 (RRO, 5, 3)}, 605.0, [0 0 0 0 0]
2019-12-23 18:29:14   [1408371 ms] MUTANT_85{1 (RNO, 1, 1)}, 605.0, [0 0 0 0 0]
2019-12-23 18:29:14   [1408372 ms] MUTANT_86{1 (PFP, 3, 1)}, 605.0, [0 0 0 0 0]
2019-12-23 18:29:14   [1408372 ms] MUTANT_87{1 (RSC, 5, 3)}, 605.0, [0 0 0 0 0]
2019-12-23 18:29:14   [1408372 ms] MUTANT_88{1 (RRO, 3, 2)}, 456.0, [1 0 1 1 1]
2019-12-23 18:29:14   [1408372 ms] MUTANT_89{1 (RTU, 3, 3)}, 605.0, [0 0 0 0 0]
2019-12-23 18:29:14   [1408373 ms] MUTANT_90{1 (RRO, 3, 5)}, 456.0, [1 0 1 1 1]
2019-12-23 18:29:14   [1408373 ms] MUTANT_91{1 (RSC, 1, 5)}, 605.0, [0 0 0 0 0]
2019-12-23 18:29:14   [1408373 ms] MUTANT_92{1 (RSC, 2, 2)}, 605.0, [0 0 0 0 0]
2019-12-23 18:29:14   [1408374 ms] MUTANT_93{1 (INC, 1, 1)}, 430.0, [1 1 1 1 1]
2019-12-23 18:29:14   [1408374 ms] MUTANT_94{1 (RTU, 4, 3)}, 605.0, [0 0 0 0 0]
2019-12-23 18:29:14   [1408375 ms] MUTANT_95{1 (POC, 1, 1)}, 430.0, [1 1 1 1 1]
2019-12-23 18:29:14   [1408375 ms] MUTANT_96{1 (RSC, 2, 5)}, 605.0, [0 0 0 0 0]
2019-12-23 18:29:14   [1408375 ms] MUTANT_97{1 (RRO, 5, 2)}, 430.0, [1 1 1 1 1]
2019-12-23 18:29:14   [1408375 ms] MUTANT_98{1 (POM, 2, 2)}, 605.0, [0 0 0 0 0]
2019-12-23 18:29:14   [1408375 ms] MUTANT_99{1 (RAO, 1, 4)}, 605.0, [0 0 0 0 0]
2019-12-23 18:29:14   [1408376 ms] MUTANT_100{1 (RRO, 7, 3)}, 605.0, [0 0 0 0 0]
2019-12-23 18:29:14   [1408376 ms] MUTANT_101{1 (RRO, 2, 1)}, 456.0, [1 0 1 1 1]
2019-12-23 18:29:14   [1408376 ms] MUTANT_102{1 (IRC, 1, 1)}, 430.0, [1 1 1 1 1]
2019-12-23 18:29:14   [1408376 ms] MUTANT_103{1 (RTU, 5, 3)}, 605.0, [0 0 0 0 0]
2019-12-23 18:29:14   [1408377 ms] MUTANT_104{1 (RSC, 6, 3)}, 605.0, [0 0 0 0 0]
2019-12-23 18:29:14   [1408377 ms] MUTANT_105{1 (RRO, 1, 4)}, 543.0, [0 1 1 0 0]
2019-12-23 18:29:14   [1408377 ms] MUTANT_106{1 (POM, 1, 2)}, 605.0, [0 0 0 0 0]
2019-12-23 18:29:14   [1408377 ms] MUTANT_107{1 (PFP, 2, 1)}, 605.0, [0 0 0 0 0]
2019-12-23 18:29:14   [1408377 ms] MUTANT_108{1 (RAO, 1, 1)}, 605.0, [0 0 0 0 0]
2019-12-23 18:29:14   [1408378 ms] MUTANT_109{1 (RSC, 3, 2)}, 605.0, [0 0 0 0 0]
2019-12-23 18:29:14   [1408378 ms] MUTANT_110{1 (RRO, 4, 5)}, 430.0, [1 1 1 1 1]
