2020-01-02 15:23:02   [23455746 ms] MUTANT_N {ORDER (OPERATOR, LOCATION, ATTRIBUTE)+}, FITNESS, [COMPARISON RESULTS]
2020-01-02 15:23:02   [23455747 ms] MUTANT_0{1 (RAF, 1, 8)}, 34.0, [1]
2020-01-02 15:23:02   [23455747 ms] MUTANT_1{1 (RSC, 4, 4)}, 34.0, [1]
2020-01-02 15:23:02   [23455747 ms] MUTANT_2{1 (RAF, 2, 8)}, 34.0, [1]
2020-01-02 15:23:02   [23455747 ms] MUTANT_3{1 (RAF, 3, 5)}, 123.0, [0]
2020-01-02 15:23:02   [23455747 ms] MUTANT_4{1 (RNO, 6, 2)}, 123.0, [0]
2020-01-02 15:23:02   [23455747 ms] MUTANT_5{1 (PFP, 1, 1)}, 34.0, [1]
2020-01-02 15:23:02   [23455748 ms] MUTANT_6{1 (RSC, 5, 1)}, 123.0, [0]
2020-01-02 15:23:02   [23455748 ms] MUTANT_7{1 (RNO, 3, 1)}, 123.0, [0]
2020-01-02 15:23:02   [23455748 ms] MUTANT_8{1 (RNO, 8, 2)}, 34.0, [1]
2020-01-02 15:23:02   [23455748 ms] MUTANT_9{1 (RAF, 1, 5)}, 34.0, [1]
2020-01-02 15:23:02   [23455748 ms] MUTANT_10{1 (RAF, 3, 8)}, 34.0, [1]
2020-01-02 15:23:02   [23455748 ms] MUTANT_11{1 (RAF, 2, 11)}, 34.0, [1]
2020-01-02 15:23:02   [23455748 ms] MUTANT_12{1 (RSC, 6, 4)}, 123.0, [0]
2020-01-02 15:23:02   [23455749 ms] MUTANT_13{1 (RNO, 5, 1)}, 34.0, [1]
2020-01-02 15:23:02   [23455749 ms] MUTANT_14{1 (RSC, 2, 3)}, 34.0, [1]
2020-01-02 15:23:02   [23455749 ms] MUTANT_15{1 (RAF, 1, 2)}, 34.0, [1]
2020-01-02 15:23:02   [23455749 ms] MUTANT_16{1 (RAF, 1, 15)}, 34.0, [1]
2020-01-02 15:23:02   [23455749 ms] MUTANT_17{1 (RAF, 2, 14)}, 34.0, [1]
2020-01-02 15:23:02   [23455749 ms] MUTANT_18{1 (RSC, 5, 4)}, 123.0, [0]
2020-01-02 15:23:02   [23455750 ms] MUTANT_19{1 (RAF, 2, 1)}, 34.0, [1]
2020-01-02 15:23:02   [23455750 ms] MUTANT_20{1 (RSC, 1, 4)}, 123.0, [0]
2020-01-02 15:23:02   [23455750 ms] MUTANT_21{1 (RGR, 1, 2)}, 34.0, [1]
2020-01-02 15:23:02   [23455750 ms] MUTANT_22{1 (RNO, 4, 1)}, 123.0, [0]
2020-01-02 15:23:02   [23455750 ms] MUTANT_23{1 (RNO, 7, 2)}, 34.0, [1]
2020-01-02 15:23:02   [23455750 ms] MUTANT_24{1 (RAF, 3, 11)}, 34.0, [1]
2020-01-02 15:23:02   [23455750 ms] MUTANT_25{1 (RSC, 6, 1)}, 34.0, [1]
2020-01-02 15:23:02   [23455751 ms] MUTANT_26{1 (RSC, 5, 5)}, 123.0, [0]
2020-01-02 15:23:02   [23455751 ms] MUTANT_27{1 (RAF, 3, 1)}, 34.0, [1]
2020-01-02 15:23:02   [23455751 ms] MUTANT_28{1 (RAF, 3, 14)}, 34.0, [1]
2020-01-02 15:23:02   [23455751 ms] MUTANT_29{1 (RAF, 2, 4)}, 34.0, [1]
2020-01-02 15:23:02   [23455751 ms] MUTANT_30{1 (RAO, 1, 2)}, 123.0, [0]
2020-01-02 15:23:02   [23455751 ms] MUTANT_31{1 (RSC, 6, 2)}, 34.0, [1]
2020-01-02 15:23:02   [23455751 ms] MUTANT_32{1 (RNO, 7, 1)}, 34.0, [1]
2020-01-02 15:23:02   [23455752 ms] MUTANT_33{1 (RSC, 2, 1)}, 34.0, [1]
2020-01-02 15:23:02   [23455752 ms] MUTANT_34{1 (RAF, 1, 9)}, 34.0, [1]
2020-01-02 15:23:02   [23455752 ms] MUTANT_35{1 (RSC, 5, 2)}, 123.0, [0]
2020-01-02 15:23:02   [23455752 ms] MUTANT_36{1 (RSC, 2, 4)}, 34.0, [1]
2020-01-02 15:23:02   [23455752 ms] MUTANT_37{1 (RGR, 2, 2)}, 34.0, [1]
2020-01-02 15:23:02   [23455753 ms] MUTANT_38{1 (RAF, 2, 7)}, 34.0, [1]
2020-01-02 15:23:02   [23455753 ms] MUTANT_39{1 (RNO, 9, 2)}, 123.0, [0]
2020-01-02 15:23:02   [23455753 ms] MUTANT_40{1 (RAF, 3, 4)}, 123.0, [0]
2020-01-02 15:23:02   [23455753 ms] MUTANT_41{1 (PRE, 3, 1)}, 34.0, [1]
2020-01-02 15:23:02   [23455753 ms] MUTANT_42{1 (RSC, 3, 1)}, 34.0, [1]
2020-01-02 15:23:02   [23455753 ms] MUTANT_43{1 (RSC, 1, 3)}, 34.0, [1]
2020-01-02 15:23:02   [23455754 ms] MUTANT_44{1 (RAF, 1, 6)}, 34.0, [1]
2020-01-02 15:23:02   [23455760 ms] MUTANT_45{1 (RSC, 6, 5)}, 34.0, [1]
2020-01-02 15:23:02   [23455760 ms] MUTANT_46{1 (RLO, 3, 1)}, 34.0, [1]
2020-01-02 15:23:02   [23455760 ms] MUTANT_47{1 (RAF, 1, 3)}, 34.0, [1]
2020-01-02 15:23:02   [23455760 ms] MUTANT_48{1 (RSC, 3, 4)}, 34.0, [1]
2020-01-02 15:23:02   [23455760 ms] MUTANT_49{1 (POC, 3, 1)}, 34.0, [1]
2020-01-02 15:23:02   [23455760 ms] MUTANT_50{1 (PRE, 1, 1)}, 34.0, [1]
2020-01-02 15:23:02   [23455761 ms] MUTANT_51{1 (RAF, 2, 13)}, 34.0, [1]
2020-01-02 15:23:02   [23455761 ms] MUTANT_52{1 (INC, 2, 1)}, 34.0, [1]
2020-01-02 15:23:02   [23455761 ms] MUTANT_53{1 (RSC, 1, 5)}, 34.0, [1]
2020-01-02 15:23:02   [23455761 ms] MUTANT_54{1 (RSC, 2, 5)}, 34.0, [1]
2020-01-02 15:23:02   [23455761 ms] MUTANT_55{1 (RGR, 1, 1)}, 34.0, [1]
2020-01-02 15:23:02   [23455761 ms] MUTANT_56{1 (RGR, 2, 1)}, 34.0, [1]
2020-01-02 15:23:02   [23455761 ms] MUTANT_57{1 (RLO, 2, 1)}, 34.0, [1]
2020-01-02 15:23:02   [23455762 ms] MUTANT_58{1 (POC, 2, 1)}, 34.0, [1]
2020-01-02 15:23:02   [23455762 ms] MUTANT_59{1 (RSC, 6, 3)}, 123.0, [0]
2020-01-02 15:23:02   [23455762 ms] MUTANT_60{1 (IRC, 1, 1)}, 123.0, [0]
2020-01-02 15:23:02   [23455762 ms] MUTANT_61{1 (RNO, 1, 2)}, 123.0, [0]
2020-01-02 15:23:02   [23455762 ms] MUTANT_62{1 (RAF, 1, 13)}, 34.0, [1]
2020-01-02 15:23:02   [23455762 ms] MUTANT_63{1 (RAO, 1, 3)}, 34.0, [1]
2020-01-02 15:23:02   [23455762 ms] MUTANT_64{1 (RAF, 2, 3)}, 34.0, [1]
2020-01-02 15:23:02   [23455763 ms] MUTANT_65{1 (RSC, 3, 2)}, 34.0, [1]
2020-01-02 15:23:02   [23455763 ms] MUTANT_66{1 (RAF, 1, 10)}, 34.0, [1]
2020-01-02 15:23:02   [23455763 ms] MUTANT_67{1 (RSC, 4, 2)}, 34.0, [1]
2020-01-02 15:23:02   [23455763 ms] MUTANT_68{1 (RLO, 4, 1)}, 34.0, [1]
2020-01-02 15:23:02   [23455763 ms] MUTANT_69{1 (RSC, 3, 5)}, 123.0, [0]
2020-01-02 15:23:02   [23455763 ms] MUTANT_70{1 (IRC, 2, 1)}, 123.0, [0]
2020-01-02 15:23:02   [23455763 ms] MUTANT_71{1 (RNO, 8, 1)}, 34.0, [1]
2020-01-02 15:23:02   [23455764 ms] MUTANT_72{1 (RLO, 1, 1)}, 123.0, [0]
2020-01-02 15:23:02   [23455764 ms] MUTANT_73{1 (RAF, 2, 6)}, 34.0, [1]
2020-01-02 15:23:02   [23455764 ms] MUTANT_74{1 (RLO, 5, 1)}, 123.0, [0]
2020-01-02 15:23:02   [23455764 ms] MUTANT_75{1 (RSC, 4, 5)}, 34.0, [1]
2020-01-02 15:23:02   [23455764 ms] MUTANT_76{1 (RNO, 9, 1)}, 34.0, [1]
2020-01-02 15:23:02   [23455764 ms] MUTANT_77{1 (PRE, 2, 1)}, 34.0, [1]
2020-01-02 15:23:02   [23455764 ms] MUTANT_78{1 (RAF, 3, 3)}, 123.0, [0]
2020-01-02 15:23:02   [23455765 ms] MUTANT_79{1 (RAF, 2, 9)}, 34.0, [1]
2020-01-02 15:23:02   [23455765 ms] MUTANT_80{1 (RAF, 3, 6)}, 34.0, [1]
2020-01-02 15:23:02   [23455765 ms] MUTANT_81{1 (PFP, 3, 1)}, 123.0, [0]
2020-01-02 15:23:02   [23455765 ms] MUTANT_82{1 (RSC, 3, 3)}, 34.0, [1]
2020-01-02 15:23:02   [23455765 ms] MUTANT_83{1 (RNO, 4, 2)}, 34.0, [1]
2020-01-02 15:23:02   [23455765 ms] MUTANT_84{1 (RSC, 1, 1)}, 123.0, [0]
2020-01-02 15:23:02   [23455765 ms] MUTANT_85{1 (RAF, 1, 4)}, 34.0, [1]
2020-01-02 15:23:02   [23455766 ms] MUTANT_86{1 (RNO, 3, 2)}, 123.0, [0]
2020-01-02 15:23:02   [23455766 ms] MUTANT_87{1 (RAF, 3, 9)}, 34.0, [1]
2020-01-02 15:23:02   [23455772 ms] MUTANT_88{1 (RAF, 2, 12)}, 34.0, [1]
2020-01-02 15:23:02   [23455772 ms] MUTANT_89{1 (RSC, 4, 3)}, 34.0, [1]
2020-01-02 15:23:02   [23455773 ms] MUTANT_90{1 (RAF, 1, 1)}, 34.0, [1]
2020-01-02 15:23:02   [23455773 ms] MUTANT_91{1 (RLO, 6, 1)}, 123.0, [0]
2020-01-02 15:23:02   [23455773 ms] MUTANT_92{1 (RNO, 1, 1)}, 34.0, [1]
2020-01-02 15:23:02   [23455773 ms] MUTANT_93{1 (POC, 1, 1)}, 34.0, [1]
2020-01-02 15:23:02   [23455773 ms] MUTANT_94{1 (RAF, 1, 14)}, 34.0, [1]
2020-01-02 15:23:02   [23455773 ms] MUTANT_95{1 (RSC, 5, 3)}, 34.0, [1]
2020-01-02 15:23:02   [23455773 ms] MUTANT_96{1 (RAF, 2, 15)}, 34.0, [1]
2020-01-02 15:23:02   [23455774 ms] MUTANT_97{1 (RNO, 5, 2)}, 123.0, [0]
2020-01-02 15:23:02   [23455774 ms] MUTANT_98{1 (RAF, 2, 2)}, 34.0, [1]
2020-01-02 15:23:02   [23455774 ms] MUTANT_99{1 (RAO, 1, 4)}, 123.0, [0]
2020-01-02 15:23:02   [23455774 ms] MUTANT_100{1 (RAF, 3, 12)}, 123.0, [0]
2020-01-02 15:23:02   [23455774 ms] MUTANT_101{1 (RAF, 1, 11)}, 34.0, [1]
2020-01-02 15:23:02   [23455774 ms] MUTANT_102{1 (RNO, 2, 1)}, 34.0, [1]
2020-01-02 15:23:02   [23455774 ms] MUTANT_103{1 (INC, 1, 1)}, 123.0, [0]
2020-01-02 15:23:02   [23455774 ms] MUTANT_104{1 (PFP, 2, 1)}, 34.0, [1]
2020-01-02 15:23:02   [23455775 ms] MUTANT_105{1 (RAF, 3, 15)}, 34.0, [1]
2020-01-02 15:23:02   [23455775 ms] MUTANT_106{1 (RAF, 2, 5)}, 34.0, [1]
2020-01-02 15:23:02   [23455775 ms] MUTANT_107{1 (RAO, 1, 1)}, 34.0, [1]
2020-01-02 15:23:02   [23455775 ms] MUTANT_108{1 (RLO, 7, 1)}, 34.0, [1]
