\relax 
\providecommand\hyper@newdestlabel[2]{}
\providecommand\HyperFirstAtBeginDocument{\AtBeginDocument}
\HyperFirstAtBeginDocument{\ifx\hyper@anchor\@undefined
\global\let\oldcontentsline\contentsline
\gdef\contentsline#1#2#3#4{\oldcontentsline{#1}{#2}{#3}}
\global\let\oldnewlabel\newlabel
\gdef\newlabel#1#2{\newlabelxx{#1}#2}
\gdef\newlabelxx#1#2#3#4#5#6{\oldnewlabel{#1}{{#2}{#3}}}
\AtEndDocument{\ifx\hyper@anchor\@undefined
\let\contentsline\oldcontentsline
\let\newlabel\oldnewlabel
\fi}
\fi}
\global\let\hyper@last\relax 
\gdef\HyperFirstAtBeginDocument#1{#1}
\providecommand\HyField@AuxAddToFields[1]{}
\providecommand\HyField@AuxAddToCoFields[2]{}
\@writefile{lot}{\contentsline {table}{\numberline {1}{\ignorespaces Percentages of all mutants executed to find S\% with \textit  {BEMT}\xspace  and \textit  {IEMT}\xspace  , Ecological Island case study.}}{1}{table.1}\protected@file@percent }
\newlabel{tab:completeIsland}{{1}{1}{Percentages of all mutants executed to find S\% with \BEMT and \IEMT , Ecological Island case study}{table.1}{}}
\@writefile{lot}{\contentsline {table}{\numberline {2}{\ignorespaces Percentages of all mutants executed to find S\% with \textit  {BEMT}\xspace  and \textit  {IEMT}\xspace  , Terminal Self-Service case study.}}{1}{table.2}\protected@file@percent }
\newlabel{tab:completeTerminal}{{2}{1}{Percentages of all mutants executed to find S\% with \BEMT and \IEMT , Terminal Self-Service case study}{table.2}{}}
\@writefile{lot}{\contentsline {table}{\numberline {3}{\ignorespaces Percentages of all mutants executed to find S\% with \textit  {BEMT}\xspace  and \textit  {IEMT}\xspace  , BruteForce case study.}}{2}{table.3}\protected@file@percent }
\newlabel{tab:completeBruteForce}{{3}{2}{Percentages of all mutants executed to find S\% with \BEMT and \IEMT , BruteForce case study}{table.3}{}}
\@writefile{lot}{\contentsline {table}{\numberline {4}{\ignorespaces Percentages of all mutants executed to find S\% with \textit  {BEMT}\xspace  and \textit  {IEMT}\xspace  , SnifferCongestion case study.}}{2}{table.4}\protected@file@percent }
\newlabel{tab:completeSnifferCongestion}{{4}{2}{Percentages of all mutants executed to find S\% with \BEMT and \IEMT , SnifferCongestion case study}{table.4}{}}
