2019-12-22 15:00:41   [1610347 ms] MUTANT_N {ORDER (OPERATOR, LOCATION, ATTRIBUTE)+}, FITNESS, [COMPARISON RESULTS]
2019-12-22 15:00:41   [1610348 ms] MUTANT_0{1 (RRO, 4, 2)}, 21.0, [1]
2019-12-22 15:00:41   [1610348 ms] MUTANT_1{1 (RRO, 3, 5)}, 21.0, [1]
2019-12-22 15:00:41   [1610348 ms] MUTANT_2{1 (PRE, 1, 1)}, 21.0, [1]
2019-12-22 15:00:41   [1610348 ms] MUTANT_3{1 (IRC, 2, 1)}, 21.0, [1]
2019-12-22 15:00:41   [1610349 ms] MUTANT_4{1 (RSC, 2, 3)}, 21.0, [1]
2019-12-22 15:00:41   [1610349 ms] MUTANT_5{1 (RSC, 3, 5)}, 70.0, [0]
2019-12-22 15:00:41   [1610349 ms] MUTANT_6{1 (RRO, 1, 3)}, 21.0, [1]
2019-12-22 15:00:41   [1610350 ms] MUTANT_7{1 (RSC, 4, 5)}, 70.0, [0]
2019-12-22 15:00:41   [1610350 ms] MUTANT_8{1 (RRO, 2, 5)}, 21.0, [1]
2019-12-22 15:00:41   [1610350 ms] MUTANT_9{1 (INC, 3, 1)}, 21.0, [1]
2019-12-22 15:00:41   [1610350 ms] MUTANT_10{1 (RRO, 3, 2)}, 21.0, [1]
2019-12-22 15:00:41   [1610351 ms] MUTANT_11{1 (RRO, 2, 3)}, 21.0, [1]
2019-12-22 15:00:41   [1610351 ms] MUTANT_12{1 (RNO, 1, 2)}, 70.0, [0]
2019-12-22 15:00:41   [1610351 ms] MUTANT_13{1 (RSC, 4, 2)}, 21.0, [1]
2019-12-22 15:00:41   [1610351 ms] MUTANT_14{1 (PFP, 1, 1)}, 21.0, [1]
2019-12-22 15:00:41   [1610352 ms] MUTANT_15{1 (RAO, 1, 3)}, 21.0, [1]
2019-12-22 15:00:41   [1610352 ms] MUTANT_16{1 (RRO, 5, 1)}, 21.0, [1]
2019-12-22 15:00:41   [1610352 ms] MUTANT_17{1 (RRO, 3, 3)}, 70.0, [0]
2019-12-22 15:00:41   [1610352 ms] MUTANT_18{1 (RSC, 1, 4)}, 70.0, [0]
2019-12-22 15:00:41   [1610353 ms] MUTANT_19{1 (RSC, 3, 3)}, 21.0, [1]
2019-12-22 15:00:41   [1610353 ms] MUTANT_20{1 (RSC, 4, 3)}, 21.0, [1]
2019-12-22 15:00:41   [1610353 ms] MUTANT_21{1 (RLO, 1, 1)}, 21.0, [1]
2019-12-22 15:00:41   [1610353 ms] MUTANT_22{1 (RSC, 2, 1)}, 70.0, [0]
2019-12-22 15:00:41   [1610354 ms] MUTANT_23{1 (RRO, 5, 2)}, 70.0, [0]
2019-12-22 15:00:41   [1610354 ms] MUTANT_24{1 (RRO, 1, 1)}, 21.0, [1]
2019-12-22 15:00:41   [1610354 ms] MUTANT_25{1 (IRC, 3, 1)}, 70.0, [0]
2019-12-22 15:00:41   [1610354 ms] MUTANT_26{1 (RRO, 1, 4)}, 21.0, [1]
2019-12-22 15:00:41   [1610355 ms] MUTANT_27{1 (RRO, 2, 1)}, 21.0, [1]
2019-12-22 15:00:41   [1610355 ms] MUTANT_28{1 (RRO, 4, 5)}, 21.0, [1]
2019-12-22 15:00:41   [1610355 ms] MUTANT_29{1 (RRO, 5, 4)}, 21.0, [1]
2019-12-22 15:00:41   [1610355 ms] MUTANT_30{1 (RSC, 2, 4)}, 21.0, [1]
2019-12-22 15:00:41   [1610356 ms] MUTANT_31{1 (RRO, 2, 4)}, 21.0, [1]
2019-12-22 15:00:41   [1610356 ms] MUTANT_32{1 (RRO, 5, 3)}, 21.0, [1]
2019-12-22 15:00:41   [1610356 ms] MUTANT_33{1 (RRO, 3, 1)}, 21.0, [1]
2019-12-22 15:00:41   [1610357 ms] MUTANT_34{1 (RSC, 1, 2)}, 21.0, [1]
2019-12-22 15:00:41   [1610357 ms] MUTANT_35{1 (RSC, 4, 1)}, 21.0, [1]
2019-12-22 15:00:41   [1610357 ms] MUTANT_36{1 (RAO, 1, 2)}, 21.0, [1]
2019-12-22 15:00:41   [1610357 ms] MUTANT_37{1 (RSC, 3, 1)}, 21.0, [1]
2019-12-22 15:00:41   [1610358 ms] MUTANT_38{1 (RRO, 4, 3)}, 21.0, [1]
2019-12-22 15:00:41   [1610358 ms] MUTANT_39{1 (RSC, 3, 4)}, 21.0, [1]
2019-12-22 15:00:41   [1610358 ms] MUTANT_40{1 (RSC, 1, 5)}, 70.0, [0]
2019-12-22 15:00:41   [1610358 ms] MUTANT_41{1 (RSC, 2, 2)}, 21.0, [1]
2019-12-22 15:00:41   [1610359 ms] MUTANT_42{1 (RRO, 1, 2)}, 21.0, [1]
2019-12-22 15:00:41   [1610359 ms] MUTANT_43{1 (INC, 1, 1)}, 21.0, [1]
2019-12-22 15:00:41   [1610359 ms] MUTANT_44{1 (POC, 1, 1)}, 21.0, [1]
2019-12-22 15:00:41   [1610359 ms] MUTANT_45{1 (RNO, 1, 1)}, 21.0, [1]
2019-12-22 15:00:41   [1610360 ms] MUTANT_46{1 (RRO, 2, 2)}, 21.0, [1]
2019-12-22 15:00:41   [1610360 ms] MUTANT_47{1 (INC, 2, 1)}, 21.0, [1]
2019-12-22 15:00:41   [1610360 ms] MUTANT_48{1 (RRO, 1, 5)}, 21.0, [1]
2019-12-22 15:00:41   [1610360 ms] MUTANT_49{1 (RRO, 5, 5)}, 21.0, [1]
2019-12-22 15:00:41   [1610361 ms] MUTANT_50{1 (RSC, 2, 5)}, 70.0, [0]
2019-12-22 15:00:41   [1610361 ms] MUTANT_51{1 (RRO, 4, 4)}, 70.0, [0]
2019-12-22 15:00:41   [1610361 ms] MUTANT_52{1 (RAO, 1, 4)}, 70.0, [0]
2019-12-22 15:00:41   [1610361 ms] MUTANT_53{1 (RRO, 4, 1)}, 21.0, [1]
2019-12-22 15:00:41   [1610362 ms] MUTANT_54{1 (IRC, 1, 1)}, 21.0, [1]
2019-12-22 15:00:41   [1610362 ms] MUTANT_55{1 (RRO, 3, 4)}, 70.0, [0]
2019-12-22 15:00:41   [1610362 ms] MUTANT_56{1 (RSC, 1, 3)}, 70.0, [0]
2019-12-22 15:00:41   [1610362 ms] MUTANT_57{1 (RAO, 1, 1)}, 21.0, [1]
2019-12-22 15:00:41   [1610363 ms] MUTANT_58{1 (RSC, 4, 4)}, 70.0, [0]
2019-12-22 15:00:41   [1610363 ms] MUTANT_59{1 (RSC, 3, 2)}, 70.0, [0]
