hof-0.30-acknowledgements 26.25
hof-0.30-administratively 24.02
hof-0.30-Australopithecus 35.75
hof-0.30-bloodthirstiness 32.40
hof-0.30-cinematographers 31.28
hof-0.30-counterespionage 29.05
hof-0.30-Czechoslovakians 27.93
hof-0.30-departmentalized 25.69
hof-0.30-disqualification 19.55
hof-0.30-enthusiastically 40.22
hof-0.30-flibbertigibbets 29.05
hof-0.30-gastrointestinal 25.69
hof-0.30-hospitalizations 24.02
hof-0.30-hydroelectricity 26.81
hof-0.30-intellectualized 31.28
hof-0.30-lightheartedness 29.05
hof-0.30-melodramatically 24.58
hof-0.30-multimillionaire 25.13
hof-0.30-nationalizations 24.58
hof-0.30-neurotransmitter 26.81
hof-0.30-overcompensating 17.87
hof-0.30-photojournalists 30.72
hof-0.30-predetermination 20.67
hof-0.30-rambunctiousness 26.25
hof-0.30-sentimentalizing 26.25
hof-0.30-synchronizations 27.93
hof-0.30-teleconferencing 26.25
hof-0.30-transcendentally 23.46
hof-0.30-unscrupulousness 24.58
hof-0.30-whatchamacallits 20.11
hof-0.45-acknowledgements 44.13
hof-0.45-administratively 39.10
hof-0.45-Australopithecus 49.16
hof-0.45-bloodthirstiness 41.89
hof-0.45-cinematographers 36.31
hof-0.45-counterespionage 46.92
hof-0.45-Czechoslovakians 36.31
hof-0.45-departmentalized 41.34
hof-0.45-disqualification 32.40
hof-0.45-enthusiastically 45.25
hof-0.45-flibbertigibbets 46.36
hof-0.45-gastrointestinal 41.89
hof-0.45-hospitalizations 31.84
hof-0.45-hydroelectricity 44.13
hof-0.45-intellectualized 43.01
hof-0.45-lightheartedness 39.10
hof-0.45-melodramatically 35.19
hof-0.45-multimillionaire 46.36
hof-0.45-nationalizations 37.43
hof-0.45-neurotransmitter 38.54
hof-0.45-overcompensating 35.19
hof-0.45-photojournalists 43.01
hof-0.45-predetermination 40.22
hof-0.45-rambunctiousness 47.48
hof-0.45-sentimentalizing 35.19
hof-0.45-synchronizations 36.87
hof-0.45-teleconferencing 44.69
hof-0.45-transcendentally 36.31
hof-0.45-unscrupulousness 46.36
hof-0.45-whatchamacallits 36.87
hof-0.60-acknowledgements 59.77
hof-0.60-administratively 49.16
hof-0.60-Australopithecus 60.89
hof-0.60-bloodthirstiness 54.74
hof-0.60-cinematographers 46.92
hof-0.60-counterespionage 51.95
hof-0.60-Czechoslovakians 49.72
hof-0.60-departmentalized 53.63
hof-0.60-disqualification 46.36
hof-0.60-enthusiastically 59.77
hof-0.60-flibbertigibbets 55.86
hof-0.60-gastrointestinal 56.98
hof-0.60-hospitalizations 43.01
hof-0.60-hydroelectricity 51.39
hof-0.60-intellectualized 63.12
hof-0.60-lightheartedness 48.04
hof-0.60-melodramatically 49.16
hof-0.60-multimillionaire 64.24
hof-0.60-nationalizations 49.16
hof-0.60-neurotransmitter 50.83
hof-0.60-overcompensating 48.60
hof-0.60-photojournalists 50.27
hof-0.60-predetermination 58.65
hof-0.60-rambunctiousness 56.42
hof-0.60-sentimentalizing 49.72
hof-0.60-synchronizations 45.81
hof-0.60-teleconferencing 56.98
hof-0.60-transcendentally 51.95
hof-0.60-unscrupulousness 57.54
hof-0.60-whatchamacallits 55.30
hof-0.75-acknowledgements 73.18
hof-0.75-administratively 58.65
hof-0.75-Australopithecus 72.62
hof-0.75-bloodthirstiness 66.48
hof-0.75-cinematographers 64.24
hof-0.75-counterespionage 73.18
hof-0.75-Czechoslovakians 67.03
hof-0.75-departmentalized 67.59
hof-0.75-disqualification 58.10
hof-0.75-enthusiastically 67.03
hof-0.75-flibbertigibbets 70.39
hof-0.75-gastrointestinal 64.80
hof-0.75-hospitalizations 72.06
hof-0.75-hydroelectricity 66.48
hof-0.75-intellectualized 77.09
hof-0.75-lightheartedness 60.89
hof-0.75-melodramatically 63.68
hof-0.75-multimillionaire 77.65
hof-0.75-nationalizations 69.27
hof-0.75-neurotransmitter 72.62
hof-0.75-overcompensating 69.27
hof-0.75-photojournalists 70.94
hof-0.75-predetermination 75.41
hof-0.75-rambunctiousness 72.06
hof-0.75-sentimentalizing 72.06
hof-0.75-synchronizations 62.01
hof-0.75-teleconferencing 68.71
hof-0.75-transcendentally 69.83
hof-0.75-unscrupulousness 74.86
hof-0.75-whatchamacallits 72.06
hof-0.90-acknowledgements 86.59
hof-0.90-administratively 80.44
hof-0.90-Australopithecus 83.24
hof-0.90-bloodthirstiness 83.79
hof-0.90-cinematographers 84.91
hof-0.90-counterespionage 86.59
hof-0.90-Czechoslovakians 78.77
hof-0.90-departmentalized 78.77
hof-0.90-disqualification 77.09
hof-0.90-enthusiastically 82.12
hof-0.90-flibbertigibbets 87.70
hof-0.90-gastrointestinal 86.59
hof-0.90-hospitalizations 88.82
hof-0.90-hydroelectricity 84.91
hof-0.90-intellectualized 89.38
hof-0.90-lightheartedness 83.24
hof-0.90-melodramatically 87.15
hof-0.90-multimillionaire 86.03
hof-0.90-nationalizations 86.59
hof-0.90-neurotransmitter 91.06
hof-0.90-overcompensating 81.00
hof-0.90-photojournalists 89.38
hof-0.90-predetermination 89.94
hof-0.90-rambunctiousness 87.15
hof-0.90-sentimentalizing 86.03
hof-0.90-synchronizations 87.15
hof-0.90-teleconferencing 89.94
hof-0.90-transcendentally 85.47
hof-0.90-unscrupulousness 87.15
hof-0.90-whatchamacallits 78.21
