hof-0.30-acknowledgements 49.18
hof-0.30-administratively 32.78
hof-0.30-Australopithecus 32.78
hof-0.30-bloodthirstiness 32.78
hof-0.30-cinematographers 32.78
hof-0.30-counterespionage 16.39
hof-0.30-Czechoslovakians 16.39
hof-0.30-departmentalized 32.78
hof-0.30-disqualification 32.78
hof-0.30-enthusiastically 32.78
hof-0.30-flibbertigibbets 32.78
hof-0.30-gastrointestinal 32.78
hof-0.30-hospitalizations 16.39
hof-0.30-hydroelectricity 32.78
hof-0.30-intellectualized 32.78
hof-0.30-lightheartedness 32.78
hof-0.30-melodramatically 16.39
hof-0.30-multimillionaire 32.78
hof-0.30-nationalizations 16.39
hof-0.30-neurotransmitter 32.78
hof-0.30-overcompensating 32.78
hof-0.30-photojournalists 49.18
hof-0.30-predetermination 16.39
hof-0.30-rambunctiousness 32.78
hof-0.30-sentimentalizing 49.18
hof-0.30-synchronizations 16.39
hof-0.30-teleconferencing 16.39
hof-0.30-transcendentally 49.18
hof-0.30-unscrupulousness 16.39
hof-0.30-whatchamacallits 16.39
hof-0.45-acknowledgements 49.18
hof-0.45-administratively 49.18
hof-0.45-Australopithecus 49.18
hof-0.45-bloodthirstiness 49.18
hof-0.45-cinematographers 68.85
hof-0.45-counterespionage 49.18
hof-0.45-Czechoslovakians 49.18
hof-0.45-departmentalized 52.45
hof-0.45-disqualification 49.18
hof-0.45-enthusiastically 49.18
hof-0.45-flibbertigibbets 49.18
hof-0.45-gastrointestinal 49.18
hof-0.45-hospitalizations 49.18
hof-0.45-hydroelectricity 49.18
hof-0.45-intellectualized 49.18
hof-0.45-lightheartedness 49.18
hof-0.45-melodramatically 32.78
hof-0.45-multimillionaire 49.18
hof-0.45-nationalizations 32.78
hof-0.45-neurotransmitter 49.18
hof-0.45-overcompensating 49.18
hof-0.45-photojournalists 49.18
hof-0.45-predetermination 32.78
hof-0.45-rambunctiousness 49.18
hof-0.45-sentimentalizing 49.18
hof-0.45-synchronizations 32.78
hof-0.45-teleconferencing 49.18
hof-0.45-transcendentally 68.85
hof-0.45-unscrupulousness 32.78
hof-0.45-whatchamacallits 32.78
hof-0.60-acknowledgements 49.18
hof-0.60-administratively 65.57
hof-0.60-Australopithecus 67.21
hof-0.60-bloodthirstiness 49.18
hof-0.60-cinematographers 68.85
hof-0.60-counterespionage 55.73
hof-0.60-Czechoslovakians 49.18
hof-0.60-departmentalized 70.49
hof-0.60-disqualification 59.01
hof-0.60-enthusiastically 65.57
hof-0.60-flibbertigibbets 55.73
hof-0.60-gastrointestinal 49.18
hof-0.60-hospitalizations 49.18
hof-0.60-hydroelectricity 57.37
hof-0.60-intellectualized 73.77
hof-0.60-lightheartedness 54.09
hof-0.60-melodramatically 32.78
hof-0.60-multimillionaire 55.73
hof-0.60-nationalizations 49.18
hof-0.60-neurotransmitter 75.40
hof-0.60-overcompensating 57.37
hof-0.60-photojournalists 57.37
hof-0.60-predetermination 49.18
hof-0.60-rambunctiousness 49.18
hof-0.60-sentimentalizing 49.18
hof-0.60-synchronizations 62.29
hof-0.60-teleconferencing 49.18
hof-0.60-transcendentally 77.04
hof-0.60-unscrupulousness 49.18
hof-0.60-whatchamacallits 49.18
hof-0.75-acknowledgements 68.85
hof-0.75-administratively 80.32
hof-0.75-Australopithecus 77.04
hof-0.75-bloodthirstiness 67.21
hof-0.75-cinematographers 86.88
hof-0.75-counterespionage 83.60
hof-0.75-Czechoslovakians 68.85
hof-0.75-departmentalized 78.68
hof-0.75-disqualification 80.32
hof-0.75-enthusiastically 80.32
hof-0.75-flibbertigibbets 72.13
hof-0.75-gastrointestinal 63.93
hof-0.75-hospitalizations 67.21
hof-0.75-hydroelectricity 62.29
hof-0.75-intellectualized 86.88
hof-0.75-lightheartedness 72.13
hof-0.75-melodramatically 62.29
hof-0.75-multimillionaire 59.01
hof-0.75-nationalizations 67.21
hof-0.75-neurotransmitter 83.60
hof-0.75-overcompensating 88.52
hof-0.75-photojournalists 68.85
hof-0.75-predetermination 57.37
hof-0.75-rambunctiousness 65.57
hof-0.75-sentimentalizing 73.77
hof-0.75-synchronizations 70.49
hof-0.75-teleconferencing 72.13
hof-0.75-transcendentally 88.52
hof-0.75-unscrupulousness 68.85
hof-0.75-whatchamacallits 68.85
hof-0.90-acknowledgements 77.04
hof-0.90-administratively 93.44
hof-0.90-Australopithecus 85.24
hof-0.90-bloodthirstiness 73.77
hof-0.90-cinematographers 93.44
hof-0.90-counterespionage 96.72
hof-0.90-Czechoslovakians 86.88
hof-0.90-departmentalized 88.52
hof-0.90-disqualification 86.88
hof-0.90-enthusiastically 85.24
hof-0.90-flibbertigibbets 81.96
hof-0.90-gastrointestinal 80.32
hof-0.90-hospitalizations 86.88
hof-0.90-hydroelectricity 72.13
hof-0.90-intellectualized 90.16
hof-0.90-lightheartedness 93.44
hof-0.90-melodramatically 85.24
hof-0.90-multimillionaire 73.77
hof-0.90-nationalizations 81.96
hof-0.90-neurotransmitter 93.44
hof-0.90-overcompensating 95.08
hof-0.90-photojournalists 83.60
hof-0.90-predetermination 73.77
hof-0.90-rambunctiousness 73.77
hof-0.90-sentimentalizing 85.24
hof-0.90-synchronizations 80.32
hof-0.90-teleconferencing 83.60
hof-0.90-transcendentally 93.44
hof-0.90-unscrupulousness 80.32
hof-0.90-whatchamacallits 88.52
