2019-12-22 14:38:08   [18447588 ms] MUTANT_N {ORDER (OPERATOR, LOCATION, ATTRIBUTE)+}, FITNESS, [COMPARISON RESULTS]
2019-12-22 14:38:08   [18447588 ms] MUTANT_0{1 (RRO, 6, 5)}, 282.0, [1 1 1 1 1]
2019-12-22 14:38:08   [18447588 ms] MUTANT_1{1 (RRO, 2, 4)}, 282.0, [1 1 1 1 1]
2019-12-22 14:38:08   [18447588 ms] MUTANT_2{1 (RTU, 1, 2)}, 835.0, [0 0 0 0 0]
2019-12-22 14:38:08   [18447589 ms] MUTANT_3{1 (RRO, 7, 5)}, 282.0, [1 1 1 1 1]
2019-12-22 14:38:08   [18447589 ms] MUTANT_4{1 (RRO, 11, 3)}, 835.0, [0 0 0 0 0]
2019-12-22 14:38:08   [18447589 ms] MUTANT_5{1 (RNO, 6, 1)}, 282.0, [1 1 1 1 1]
2019-12-22 14:38:08   [18447589 ms] MUTANT_6{1 (RLO, 8, 1)}, 282.0, [1 1 1 1 1]
2019-12-22 14:38:08   [18447589 ms] MUTANT_7{1 (WTM, 3, 1)}, 835.0, [0 0 0 0 0]
2019-12-22 14:38:08   [18447590 ms] MUTANT_8{1 (RRO, 5, 5)}, 282.0, [1 1 1 1 1]
2019-12-22 14:38:08   [18447590 ms] MUTANT_9{1 (RRO, 3, 1)}, 282.0, [1 1 1 1 1]
2019-12-22 14:38:08   [18447590 ms] MUTANT_10{1 (RRO, 13, 3)}, 835.0, [0 0 0 0 0]
2019-12-22 14:38:08   [18447590 ms] MUTANT_11{1 (RTU, 3, 2)}, 835.0, [0 0 0 0 0]
2019-12-22 14:38:08   [18447590 ms] MUTANT_12{1 (RNO, 9, 2)}, 282.0, [1 1 1 1 1]
2019-12-22 14:38:08   [18447590 ms] MUTANT_13{1 (RNO, 4, 1)}, 282.0, [1 1 1 1 1]
2019-12-22 14:38:08   [18447591 ms] MUTANT_14{1 (RNO, 22, 2)}, 835.0, [0 0 0 0 0]
2019-12-22 14:38:08   [18447591 ms] MUTANT_15{1 (RRO, 5, 1)}, 282.0, [1 1 1 1 1]
2019-12-22 14:38:08   [18447591 ms] MUTANT_16{1 (RRO, 10, 3)}, 835.0, [0 0 0 0 0]
2019-12-22 14:38:08   [18447591 ms] MUTANT_17{1 (RNO, 18, 1)}, 282.0, [1 1 1 1 1]
2019-12-22 14:38:08   [18447591 ms] MUTANT_18{1 (RRO, 4, 4)}, 282.0, [1 1 1 1 1]
2019-12-22 14:38:08   [18447592 ms] MUTANT_19{1 (RSC, 3, 3)}, 835.0, [0 0 0 0 0]
2019-12-22 14:38:08   [18447592 ms] MUTANT_20{1 (RRO, 3, 4)}, 282.0, [1 1 1 1 1]
2019-12-22 14:38:08   [18447592 ms] MUTANT_21{1 (RNO, 12, 2)}, 282.0, [1 1 1 1 1]
2019-12-22 14:38:08   [18447592 ms] MUTANT_22{1 (RTU, 4, 2)}, 835.0, [0 0 0 0 0]
2019-12-22 14:38:08   [18447592 ms] MUTANT_23{1 (RNO, 21, 2)}, 282.0, [1 1 1 1 1]
2019-12-22 14:38:08   [18447592 ms] MUTANT_24{1 (RRO, 14, 3)}, 835.0, [0 0 0 0 0]
2019-12-22 14:38:08   [18447593 ms] MUTANT_25{1 (RRO, 4, 1)}, 282.0, [1 1 1 1 1]
2019-12-22 14:38:08   [18447593 ms] MUTANT_26{1 (RNO, 8, 2)}, 282.0, [1 1 1 1 1]
2019-12-22 14:38:08   [18447593 ms] MUTANT_27{1 (RRO, 7, 2)}, 282.0, [1 1 1 1 1]
2019-12-22 14:38:08   [18447593 ms] MUTANT_28{1 (WTM, 2, 1)}, 835.0, [0 0 0 0 0]
2019-12-22 14:38:08   [18447593 ms] MUTANT_29{1 (RRO, 10, 5)}, 282.0, [1 1 1 1 1]
2019-12-22 14:38:08   [18447594 ms] MUTANT_30{1 (RRO, 11, 2)}, 282.0, [1 1 1 1 1]
2019-12-22 14:38:08   [18447594 ms] MUTANT_31{1 (RNO, 20, 2)}, 282.0, [1 1 1 1 1]
2019-12-22 14:38:08   [18447594 ms] MUTANT_32{1 (RTU, 2, 3)}, 835.0, [0 0 0 0 0]
2019-12-22 14:38:08   [18447594 ms] MUTANT_33{1 (RRO, 14, 1)}, 282.0, [1 1 1 1 1]
2019-12-22 14:38:08   [18447594 ms] MUTANT_34{1 (RRO, 1, 3)}, 282.0, [1 1 1 1 1]
2019-12-22 14:38:08   [18447594 ms] MUTANT_35{1 (RNO, 8, 1)}, 282.0, [1 1 1 1 1]
2019-12-22 14:38:08   [18447595 ms] MUTANT_36{1 (WTM, 4, 2)}, 282.0, [1 1 1 1 1]
2019-12-22 14:38:08   [18447595 ms] MUTANT_37{1 (RRO, 5, 4)}, 282.0, [1 1 1 1 1]
2019-12-22 14:38:08   [18447595 ms] MUTANT_38{1 (RRO, 6, 1)}, 282.0, [1 1 1 1 1]
2019-12-22 14:38:08   [18447595 ms] MUTANT_39{1 (RSC, 4, 1)}, 835.0, [0 0 0 0 0]
2019-12-22 14:38:08   [18447595 ms] MUTANT_40{1 (RNO, 9, 1)}, 282.0, [1 1 1 1 1]
2019-12-22 14:38:08   [18447595 ms] MUTANT_41{1 (RRO, 13, 4)}, 282.0, [1 1 1 1 1]
2019-12-22 14:38:08   [18447596 ms] MUTANT_42{1 (RRO, 7, 1)}, 282.0, [1 1 1 1 1]
2019-12-22 14:38:08   [18447596 ms] MUTANT_43{1 (RSC, 3, 1)}, 835.0, [0 0 0 0 0]
2019-12-22 14:38:08   [18447596 ms] MUTANT_44{1 (RRO, 10, 2)}, 282.0, [1 1 1 1 1]
2019-12-22 14:38:08   [18447604 ms] MUTANT_45{1 (WTM, 1, 1)}, 835.0, [0 0 0 0 0]
2019-12-22 14:38:08   [18447604 ms] MUTANT_46{1 (RNO, 15, 1)}, 282.0, [1 1 1 1 1]
2019-12-22 14:38:08   [18447604 ms] MUTANT_47{1 (RRO, 2, 3)}, 835.0, [0 0 0 0 0]
2019-12-22 14:38:08   [18447604 ms] MUTANT_48{1 (RTU, 1, 3)}, 835.0, [0 0 0 0 0]
2019-12-22 14:38:08   [18447604 ms] MUTANT_49{1 (WBT, 3, 1)}, 282.0, [1 1 1 1 1]
2019-12-22 14:38:08   [18447605 ms] MUTANT_50{1 (RSC, 3, 4)}, 835.0, [0 0 0 0 0]
2019-12-22 14:38:08   [18447605 ms] MUTANT_51{1 (WBT, 2, 1)}, 282.0, [1 1 1 1 1]
2019-12-22 14:38:08   [18447605 ms] MUTANT_52{1 (RRO, 8, 5)}, 282.0, [1 1 1 1 1]
2019-12-22 14:38:08   [18447605 ms] MUTANT_53{1 (RNO, 11, 2)}, 282.0, [1 1 1 1 1]
2019-12-22 14:38:08   [18447605 ms] MUTANT_54{1 (WTM, 3, 2)}, 282.0, [1 1 1 1 1]
2019-12-22 14:38:08   [18447605 ms] MUTANT_55{1 (RRO, 14, 4)}, 282.0, [1 1 1 1 1]
2019-12-22 14:38:08   [18447606 ms] MUTANT_56{1 (WTM, 2, 2)}, 282.0, [1 1 1 1 1]
2019-12-22 14:38:08   [18447606 ms] MUTANT_57{1 (RNO, 17, 1)}, 282.0, [1 1 1 1 1]
2019-12-22 14:38:08   [18447606 ms] MUTANT_58{1 (RNO, 7, 1)}, 282.0, [1 1 1 1 1]
2019-12-22 14:38:08   [18447606 ms] MUTANT_59{1 (RRO, 15, 1)}, 282.0, [1 1 1 1 1]
2019-12-22 14:38:08   [18447606 ms] MUTANT_60{1 (RTU, 3, 1)}, 835.0, [0 0 0 0 0]
2019-12-22 14:38:08   [18447606 ms] MUTANT_61{1 (RLO, 3, 1)}, 282.0, [1 1 1 1 1]
2019-12-22 14:38:08   [18447607 ms] MUTANT_62{1 (RNO, 1, 2)}, 282.0, [1 1 1 1 1]
2019-12-22 14:38:08   [18447607 ms] MUTANT_63{1 (RSC, 1, 3)}, 835.0, [0 0 0 0 0]
2019-12-22 14:38:08   [18447607 ms] MUTANT_64{1 (RRO, 15, 4)}, 282.0, [1 1 1 1 1]
2019-12-22 14:38:08   [18447607 ms] MUTANT_65{1 (RRO, 6, 4)}, 282.0, [1 1 1 1 1]
2019-12-22 14:38:08   [18447607 ms] MUTANT_66{1 (PRE, 4, 1)}, 282.0, [1 1 1 1 1]
2019-12-22 14:38:08   [18447607 ms] MUTANT_67{1 (RNO, 19, 2)}, 282.0, [1 1 1 1 1]
2019-12-22 14:38:08   [18447608 ms] MUTANT_68{1 (RRO, 12, 3)}, 835.0, [0 0 0 0 0]
2019-12-22 14:38:08   [18447608 ms] MUTANT_69{1 (RSC, 4, 4)}, 835.0, [0 0 0 0 0]
2019-12-22 14:38:08   [18447608 ms] MUTANT_70{1 (RRO, 3, 3)}, 835.0, [0 0 0 0 0]
2019-12-22 14:38:08   [18447608 ms] MUTANT_71{1 (RRO, 9, 4)}, 282.0, [1 1 1 1 1]
2019-12-22 14:38:08   [18447608 ms] MUTANT_72{1 (RRO, 10, 1)}, 282.0, [1 1 1 1 1]
2019-12-22 14:38:08   [18447609 ms] MUTANT_73{1 (RTU, 4, 1)}, 835.0, [0 0 0 0 0]
2019-12-22 14:38:08   [18447609 ms] MUTANT_74{1 (PRE, 1, 1)}, 282.0, [1 1 1 1 1]
2019-12-22 14:38:08   [18447609 ms] MUTANT_75{1 (RTU, 3, 4)}, 835.0, [0 0 0 0 0]
2019-12-22 14:38:08   [18447609 ms] MUTANT_76{1 (RNO, 12, 1)}, 835.0, [0 0 0 0 0]
2019-12-22 14:38:08   [18447609 ms] MUTANT_77{1 (RNO, 2, 2)}, 835.0, [0 0 0 0 0]
2019-12-22 14:38:08   [18447609 ms] MUTANT_78{1 (RSC, 4, 5)}, 835.0, [0 0 0 0 0]
2019-12-22 14:38:08   [18447610 ms] MUTANT_79{1 (RLO, 2, 1)}, 282.0, [1 1 1 1 1]
2019-12-22 14:38:08   [18447610 ms] MUTANT_80{1 (WBT, 1, 1)}, 835.0, [0 0 0 0 0]
2019-12-22 14:38:08   [18447610 ms] MUTANT_81{1 (RTU, 2, 4)}, 835.0, [0 0 0 0 0]
2019-12-22 14:38:08   [18447610 ms] MUTANT_82{1 (RNO, 11, 1)}, 282.0, [1 1 1 1 1]
2019-12-22 14:38:08   [18447610 ms] MUTANT_83{1 (RNO, 16, 2)}, 282.0, [1 1 1 1 1]
2019-12-22 14:38:08   [18447610 ms] MUTANT_84{1 (RRO, 1, 2)}, 282.0, [1 1 1 1 1]
2019-12-22 14:38:08   [18447611 ms] MUTANT_85{1 (RSC, 1, 1)}, 835.0, [0 0 0 0 0]
2019-12-22 14:38:08   [18447611 ms] MUTANT_86{1 (RSC, 4, 2)}, 835.0, [0 0 0 0 0]
2019-12-22 14:38:08   [18447611 ms] MUTANT_87{1 (RRO, 15, 2)}, 282.0, [1 1 1 1 1]
2019-12-22 14:38:08   [18447611 ms] MUTANT_88{1 (RRO, 4, 3)}, 835.0, [0 0 0 0 0]
2019-12-22 14:38:08   [18447611 ms] MUTANT_89{1 (RRO, 12, 5)}, 282.0, [1 1 1 1 1]
2019-12-22 14:38:08   [18447611 ms] MUTANT_90{1 (RRO, 14, 5)}, 282.0, [1 1 1 1 1]
2019-12-22 14:38:08   [18447612 ms] MUTANT_91{1 (RTU, 4, 4)}, 835.0, [0 0 0 0 0]
2019-12-22 14:38:08   [18447612 ms] MUTANT_92{1 (RNO, 13, 1)}, 282.0, [1 1 1 1 1]
2019-12-22 14:38:08   [18447612 ms] MUTANT_93{1 (RNO, 18, 2)}, 282.0, [1 1 1 1 1]
2019-12-22 14:38:08   [18447612 ms] MUTANT_94{1 (RNO, 14, 1)}, 282.0, [1 1 1 1 1]
2019-12-22 14:38:08   [18447616 ms] MUTANT_95{1 (RRO, 7, 4)}, 282.0, [1 1 1 1 1]
2019-12-22 14:38:08   [18447616 ms] MUTANT_96{1 (RTU, 1, 4)}, 835.0, [0 0 0 0 0]
2019-12-22 14:38:08   [18447617 ms] MUTANT_97{1 (RSC, 1, 4)}, 835.0, [0 0 0 0 0]
2019-12-22 14:38:08   [18447617 ms] MUTANT_98{1 (RRO, 6, 3)}, 835.0, [0 0 0 0 0]
2019-12-22 14:38:08   [18447617 ms] MUTANT_99{1 (RRO, 15, 5)}, 282.0, [1 1 1 1 1]
2019-12-22 14:38:08   [18447617 ms] MUTANT_100{1 (RLO, 4, 1)}, 282.0, [1 1 1 1 1]
2019-12-22 14:38:08   [18447617 ms] MUTANT_101{1 (RTU, 2, 1)}, 835.0, [0 0 0 0 0]
2019-12-22 14:38:08   [18447618 ms] MUTANT_102{1 (RLO, 1, 1)}, 282.0, [1 1 1 1 1]
2019-12-22 14:38:08   [18447619 ms] MUTANT_103{1 (RRO, 8, 1)}, 282.0, [1 1 1 1 1]
2019-12-22 14:38:08   [18447619 ms] MUTANT_104{1 (RNO, 4, 2)}, 282.0, [1 1 1 1 1]
2019-12-22 14:38:08   [18447621 ms] MUTANT_105{1 (RSC, 2, 1)}, 835.0, [0 0 0 0 0]
2019-12-22 14:38:08   [18447622 ms] MUTANT_106{1 (RRO, 12, 2)}, 282.0, [1 1 1 1 1]
2019-12-22 14:38:08   [18447624 ms] MUTANT_107{1 (RLO, 5, 1)}, 282.0, [1 1 1 1 1]
2019-12-22 14:38:08   [18447625 ms] MUTANT_108{1 (RRO, 13, 1)}, 282.0, [1 1 1 1 1]
2019-12-22 14:38:08   [18447626 ms] MUTANT_109{1 (RRO, 11, 5)}, 282.0, [1 1 1 1 1]
2019-12-22 14:38:08   [18447626 ms] MUTANT_110{1 (PRE, 2, 1)}, 282.0, [1 1 1 1 1]
2019-12-22 14:38:08   [18447627 ms] MUTANT_111{1 (RRO, 9, 1)}, 282.0, [1 1 1 1 1]
2019-12-22 14:38:08   [18447627 ms] MUTANT_112{1 (RRO, 2, 5)}, 282.0, [1 1 1 1 1]
2019-12-22 14:38:08   [18447627 ms] MUTANT_113{1 (RSC, 2, 4)}, 835.0, [0 0 0 0 0]
2019-12-22 14:38:08   [18447627 ms] MUTANT_114{1 (RTU, 1, 1)}, 835.0, [0 0 0 0 0]
2019-12-22 14:38:08   [18447627 ms] MUTANT_115{1 (RNO, 17, 2)}, 282.0, [1 1 1 1 1]
2019-12-22 14:38:08   [18447627 ms] MUTANT_116{1 (RRO, 5, 3)}, 835.0, [0 0 0 0 0]
2019-12-22 14:38:08   [18447628 ms] MUTANT_117{1 (RRO, 8, 4)}, 282.0, [1 1 1 1 1]
2019-12-22 14:38:08   [18447628 ms] MUTANT_118{1 (RNO, 1, 1)}, 282.0, [1 1 1 1 1]
2019-12-22 14:38:08   [18447628 ms] MUTANT_119{1 (WBT, 4, 1)}, 282.0, [1 1 1 1 1]
2019-12-22 14:38:08   [18447628 ms] MUTANT_120{1 (RRO, 15, 3)}, 835.0, [0 0 0 0 0]
2019-12-22 14:38:08   [18447632 ms] MUTANT_121{1 (RNO, 6, 2)}, 282.0, [1 1 1 1 1]
2019-12-22 14:38:08   [18447632 ms] MUTANT_122{1 (RRO, 4, 2)}, 282.0, [1 1 1 1 1]
2019-12-22 14:38:08   [18447633 ms] MUTANT_123{1 (RRO, 12, 4)}, 282.0, [1 1 1 1 1]
2019-12-22 14:38:08   [18447633 ms] MUTANT_124{1 (RNO, 5, 2)}, 282.0, [1 1 1 1 1]
2019-12-22 14:38:08   [18447633 ms] MUTANT_125{1 (RRO, 8, 3)}, 835.0, [0 0 0 0 0]
2019-12-22 14:38:08   [18447633 ms] MUTANT_126{1 (RRO, 3, 2)}, 282.0, [1 1 1 1 1]
2019-12-22 14:38:08   [18447633 ms] MUTANT_127{1 (RNO, 2, 1)}, 391.0, [1 1 1 0 1]
2019-12-22 14:38:08   [18447633 ms] MUTANT_128{1 (RRO, 9, 3)}, 835.0, [0 0 0 0 0]
2019-12-22 14:38:08   [18447634 ms] MUTANT_129{1 (RNO, 7, 2)}, 282.0, [1 1 1 1 1]
2019-12-22 14:38:08   [18447634 ms] MUTANT_130{1 (RRO, 3, 5)}, 282.0, [1 1 1 1 1]
2019-12-22 14:38:08   [18447634 ms] MUTANT_131{1 (RSC, 1, 5)}, 835.0, [0 0 0 0 0]
2019-12-22 14:38:08   [18447634 ms] MUTANT_132{1 (RSC, 2, 2)}, 835.0, [0 0 0 0 0]
2019-12-22 14:38:08   [18447634 ms] MUTANT_133{1 (RLO, 6, 1)}, 282.0, [1 1 1 1 1]
2019-12-22 14:38:08   [18447634 ms] MUTANT_134{1 (RRO, 12, 1)}, 282.0, [1 1 1 1 1]
2019-12-22 14:38:08   [18447635 ms] MUTANT_135{1 (RNO, 22, 1)}, 835.0, [0 0 0 0 0]
2019-12-22 14:38:08   [18447635 ms] MUTANT_136{1 (RTU, 4, 3)}, 835.0, [0 0 0 0 0]
2019-12-22 14:38:08   [18447635 ms] MUTANT_137{1 (RRO, 1, 1)}, 391.0, [1 1 1 0 1]
2019-12-22 14:38:08   [18447635 ms] MUTANT_138{1 (RNO, 3, 1)}, 282.0, [1 1 1 1 1]
2019-12-22 14:38:08   [18447635 ms] MUTANT_139{1 (RNO, 21, 1)}, 282.0, [1 1 1 1 1]
2019-12-22 14:38:08   [18447635 ms] MUTANT_140{1 (RNO, 15, 2)}, 282.0, [1 1 1 1 1]
2019-12-22 14:38:08   [18447635 ms] MUTANT_141{1 (RRO, 11, 4)}, 282.0, [1 1 1 1 1]
2019-12-22 14:38:08   [18447636 ms] MUTANT_142{1 (RSC, 2, 5)}, 835.0, [0 0 0 0 0]
2019-12-22 14:38:08   [18447636 ms] MUTANT_143{1 (RRO, 5, 2)}, 282.0, [1 1 1 1 1]
2019-12-22 14:38:08   [18447636 ms] MUTANT_144{1 (RRO, 7, 3)}, 835.0, [0 0 0 0 0]
2019-12-22 14:38:08   [18447636 ms] MUTANT_145{1 (RRO, 13, 2)}, 282.0, [1 1 1 1 1]
2019-12-22 14:38:08   [18447636 ms] MUTANT_146{1 (RNO, 14, 2)}, 282.0, [1 1 1 1 1]
2019-12-22 14:38:08   [18447636 ms] MUTANT_147{1 (RRO, 11, 1)}, 282.0, [1 1 1 1 1]
2019-12-22 14:38:08   [18447637 ms] MUTANT_148{1 (RRO, 2, 1)}, 282.0, [1 1 1 1 1]
2019-12-22 14:38:08   [18447637 ms] MUTANT_149{1 (RTU, 2, 2)}, 835.0, [0 0 0 0 0]
2019-12-22 14:38:08   [18447637 ms] MUTANT_150{1 (RRO, 1, 4)}, 282.0, [1 1 1 1 1]
2019-12-22 14:38:08   [18447637 ms] MUTANT_151{1 (RRO, 14, 2)}, 282.0, [1 1 1 1 1]
2019-12-22 14:38:08   [18447637 ms] MUTANT_152{1 (WTM, 4, 1)}, 835.0, [0 0 0 0 0]
2019-12-22 14:38:08   [18447637 ms] MUTANT_153{1 (RLO, 7, 1)}, 282.0, [1 1 1 1 1]
2019-12-22 14:38:08   [18447637 ms] MUTANT_154{1 (RSC, 3, 2)}, 835.0, [0 0 0 0 0]
2019-12-22 14:38:08   [18447638 ms] MUTANT_155{1 (RRO, 13, 5)}, 282.0, [1 1 1 1 1]
2019-12-22 14:38:08   [18447638 ms] MUTANT_156{1 (RRO, 4, 5)}, 282.0, [1 1 1 1 1]
