hof-0.30-acknowledgements 27.93
hof-0.30-administratively 22.34
hof-0.30-Australopithecus 33.51
hof-0.30-bloodthirstiness 33.51
hof-0.30-cinematographers 33.51
hof-0.30-counterespionage 39.10
hof-0.30-Czechoslovakians 27.93
hof-0.30-departmentalized 33.51
hof-0.30-disqualification 33.51
hof-0.30-enthusiastically 39.10
hof-0.30-flibbertigibbets 33.51
hof-0.30-gastrointestinal 22.34
hof-0.30-hospitalizations 33.51
hof-0.30-hydroelectricity 41.89
hof-0.30-intellectualized 39.10
hof-0.30-lightheartedness 27.93
hof-0.30-melodramatically 39.10
hof-0.30-multimillionaire 22.34
hof-0.30-nationalizations 33.51
hof-0.30-neurotransmitter 33.51
hof-0.30-overcompensating 27.93
hof-0.30-photojournalists 33.51
hof-0.30-predetermination 33.51
hof-0.30-rambunctiousness 27.93
hof-0.30-sentimentalizing 33.51
hof-0.30-synchronizations 27.93
hof-0.30-teleconferencing 39.10
hof-0.30-transcendentally 27.93
hof-0.30-unscrupulousness 33.51
hof-0.30-whatchamacallits 27.93
hof-0.45-acknowledgements 41.89
hof-0.45-administratively 40.78
hof-0.45-Australopithecus 41.34
hof-0.45-bloodthirstiness 44.69
hof-0.45-cinematographers 42.45
hof-0.45-counterespionage 49.72
hof-0.45-Czechoslovakians 49.16
hof-0.45-departmentalized 52.51
hof-0.45-disqualification 44.13
hof-0.45-enthusiastically 47.48
hof-0.45-flibbertigibbets 46.92
hof-0.45-gastrointestinal 39.10
hof-0.45-hospitalizations 42.45
hof-0.45-hydroelectricity 54.74
hof-0.45-intellectualized 50.83
hof-0.45-lightheartedness 41.89
hof-0.45-melodramatically 50.27
hof-0.45-multimillionaire 40.78
hof-0.45-nationalizations 46.36
hof-0.45-neurotransmitter 48.60
hof-0.45-overcompensating 39.10
hof-0.45-photojournalists 50.83
hof-0.45-predetermination 42.45
hof-0.45-rambunctiousness 41.34
hof-0.45-sentimentalizing 45.81
hof-0.45-synchronizations 41.89
hof-0.45-teleconferencing 44.69
hof-0.45-transcendentally 41.34
hof-0.45-unscrupulousness 42.45
hof-0.45-whatchamacallits 39.10
hof-0.60-acknowledgements 54.18
hof-0.60-administratively 51.39
hof-0.60-Australopithecus 55.86
hof-0.60-bloodthirstiness 56.42
hof-0.60-cinematographers 51.39
hof-0.60-counterespionage 62.01
hof-0.60-Czechoslovakians 58.10
hof-0.60-departmentalized 62.56
hof-0.60-disqualification 56.42
hof-0.60-enthusiastically 63.68
hof-0.60-flibbertigibbets 54.18
hof-0.60-gastrointestinal 50.83
hof-0.60-hospitalizations 51.95
hof-0.60-hydroelectricity 65.36
hof-0.60-intellectualized 65.92
hof-0.60-lightheartedness 48.04
hof-0.60-melodramatically 59.21
hof-0.60-multimillionaire 52.51
hof-0.60-nationalizations 55.30
hof-0.60-neurotransmitter 60.89
hof-0.60-overcompensating 55.30
hof-0.60-photojournalists 58.65
hof-0.60-predetermination 57.54
hof-0.60-rambunctiousness 50.27
hof-0.60-sentimentalizing 51.95
hof-0.60-synchronizations 55.30
hof-0.60-teleconferencing 58.10
hof-0.60-transcendentally 53.07
hof-0.60-unscrupulousness 53.07
hof-0.60-whatchamacallits 47.48
hof-0.75-acknowledgements 63.68
hof-0.75-administratively 65.92
hof-0.75-Australopithecus 71.50
hof-0.75-bloodthirstiness 72.06
hof-0.75-cinematographers 69.83
hof-0.75-counterespionage 72.06
hof-0.75-Czechoslovakians 70.94
hof-0.75-departmentalized 75.97
hof-0.75-disqualification 72.62
hof-0.75-enthusiastically 75.97
hof-0.75-flibbertigibbets 73.18
hof-0.75-gastrointestinal 65.92
hof-0.75-hospitalizations 62.01
hof-0.75-hydroelectricity 76.53
hof-0.75-intellectualized 74.86
hof-0.75-lightheartedness 59.77
hof-0.75-melodramatically 69.27
hof-0.75-multimillionaire 72.06
hof-0.75-nationalizations 64.80
hof-0.75-neurotransmitter 72.06
hof-0.75-overcompensating 68.15
hof-0.75-photojournalists 67.59
hof-0.75-predetermination 69.27
hof-0.75-rambunctiousness 68.71
hof-0.75-sentimentalizing 67.03
hof-0.75-synchronizations 74.86
hof-0.75-teleconferencing 77.65
hof-0.75-transcendentally 68.15
hof-0.75-unscrupulousness 65.92
hof-0.75-whatchamacallits 69.27
hof-0.90-acknowledgements 84.35
hof-0.90-administratively 77.65
hof-0.90-Australopithecus 87.70
hof-0.90-bloodthirstiness 86.59
hof-0.90-cinematographers 88.26
hof-0.90-counterespionage 88.82
hof-0.90-Czechoslovakians 82.68
hof-0.90-departmentalized 88.26
hof-0.90-disqualification 82.12
hof-0.90-enthusiastically 82.12
hof-0.90-flibbertigibbets 88.82
hof-0.90-gastrointestinal 77.65
hof-0.90-hospitalizations 88.82
hof-0.90-hydroelectricity 89.38
hof-0.90-intellectualized 90.50
hof-0.90-lightheartedness 89.94
hof-0.90-melodramatically 79.88
hof-0.90-multimillionaire 89.94
hof-0.90-nationalizations 84.35
hof-0.90-neurotransmitter 87.70
hof-0.90-overcompensating 76.53
hof-0.90-photojournalists 79.32
hof-0.90-predetermination 84.35
hof-0.90-rambunctiousness 83.79
hof-0.90-sentimentalizing 82.12
hof-0.90-synchronizations 91.62
hof-0.90-teleconferencing 92.17
hof-0.90-transcendentally 87.15
hof-0.90-unscrupulousness 80.44
hof-0.90-whatchamacallits 82.68
