hof-0.30-acknowledgements 35.53
hof-0.30-administratively 21.48
hof-0.30-Australopithecus 17.35
hof-0.30-bloodthirstiness 23.96
hof-0.30-cinematographers 22.31
hof-0.30-counterespionage 39.66
hof-0.30-Czechoslovakians 23.96
hof-0.30-departmentalized 30.57
hof-0.30-disqualification 28.09
hof-0.30-enthusiastically 23.14
hof-0.30-flibbertigibbets 31.40
hof-0.30-gastrointestinal 31.40
hof-0.30-hospitalizations 11.57
hof-0.30-hydroelectricity 28.09
hof-0.30-intellectualized 28.09
hof-0.30-lightheartedness 29.75
hof-0.30-melodramatically 28.92
hof-0.30-multimillionaire 21.48
hof-0.30-nationalizations 33.05
hof-0.30-neurotransmitter 25.61
hof-0.30-overcompensating 28.09
hof-0.30-photojournalists 30.57
hof-0.30-predetermination 26.44
hof-0.30-rambunctiousness 18.18
hof-0.30-sentimentalizing 20.66
hof-0.30-synchronizations 26.44
hof-0.30-teleconferencing 33.05
hof-0.30-transcendentally 25.61
hof-0.30-unscrupulousness 34.71
hof-0.30-whatchamacallits 19.83
hof-0.45-acknowledgements 46.28
hof-0.45-administratively 32.23
hof-0.45-Australopithecus 24.79
hof-0.45-bloodthirstiness 37.19
hof-0.45-cinematographers 33.88
hof-0.45-counterespionage 50.41
hof-0.45-Czechoslovakians 40.49
hof-0.45-departmentalized 40.49
hof-0.45-disqualification 44.62
hof-0.45-enthusiastically 29.75
hof-0.45-flibbertigibbets 42.97
hof-0.45-gastrointestinal 46.28
hof-0.45-hospitalizations 26.44
hof-0.45-hydroelectricity 39.66
hof-0.45-intellectualized 40.49
hof-0.45-lightheartedness 35.53
hof-0.45-melodramatically 40.49
hof-0.45-multimillionaire 35.53
hof-0.45-nationalizations 47.10
hof-0.45-neurotransmitter 38.01
hof-0.45-overcompensating 38.01
hof-0.45-photojournalists 41.32
hof-0.45-predetermination 37.19
hof-0.45-rambunctiousness 34.71
hof-0.45-sentimentalizing 33.88
hof-0.45-synchronizations 38.84
hof-0.45-teleconferencing 46.28
hof-0.45-transcendentally 37.19
hof-0.45-unscrupulousness 42.14
hof-0.45-whatchamacallits 34.71
hof-0.60-acknowledgements 68.59
hof-0.60-administratively 47.10
hof-0.60-Australopithecus 48.76
hof-0.60-bloodthirstiness 58.67
hof-0.60-cinematographers 50.41
hof-0.60-counterespionage 60.33
hof-0.60-Czechoslovakians 49.58
hof-0.60-departmentalized 50.41
hof-0.60-disqualification 57.85
hof-0.60-enthusiastically 55.37
hof-0.60-flibbertigibbets 57.85
hof-0.60-gastrointestinal 69.42
hof-0.60-hospitalizations 42.97
hof-0.60-hydroelectricity 65.28
hof-0.60-intellectualized 55.37
hof-0.60-lightheartedness 46.28
hof-0.60-melodramatically 54.54
hof-0.60-multimillionaire 42.97
hof-0.60-nationalizations 57.85
hof-0.60-neurotransmitter 52.06
hof-0.60-overcompensating 56.19
hof-0.60-photojournalists 50.41
hof-0.60-predetermination 56.19
hof-0.60-rambunctiousness 63.63
hof-0.60-sentimentalizing 53.71
hof-0.60-synchronizations 48.76
hof-0.60-teleconferencing 63.63
hof-0.60-transcendentally 46.28
hof-0.60-unscrupulousness 55.37
hof-0.60-whatchamacallits 54.54
hof-0.75-acknowledgements 74.38
hof-0.75-administratively 71.07
hof-0.75-Australopithecus 68.59
hof-0.75-bloodthirstiness 76.03
hof-0.75-cinematographers 70.24
hof-0.75-counterespionage 66.11
hof-0.75-Czechoslovakians 59.50
hof-0.75-departmentalized 75.20
hof-0.75-disqualification 66.94
hof-0.75-enthusiastically 79.33
hof-0.75-flibbertigibbets 79.33
hof-0.75-gastrointestinal 81.81
hof-0.75-hospitalizations 60.33
hof-0.75-hydroelectricity 75.20
hof-0.75-intellectualized 71.07
hof-0.75-lightheartedness 66.11
hof-0.75-melodramatically 69.42
hof-0.75-multimillionaire 60.33
hof-0.75-nationalizations 72.72
hof-0.75-neurotransmitter 71.90
hof-0.75-overcompensating 66.94
hof-0.75-photojournalists 72.72
hof-0.75-predetermination 63.63
hof-0.75-rambunctiousness 74.38
hof-0.75-sentimentalizing 65.28
hof-0.75-synchronizations 67.76
hof-0.75-teleconferencing 76.03
hof-0.75-transcendentally 55.37
hof-0.75-unscrupulousness 72.72
hof-0.75-whatchamacallits 62.80
hof-0.90-acknowledgements 87.60
hof-0.90-administratively 79.33
hof-0.90-Australopithecus 75.20
hof-0.90-bloodthirstiness 90.08
hof-0.90-cinematographers 76.03
hof-0.90-counterespionage 79.33
hof-0.90-Czechoslovakians 81.81
hof-0.90-departmentalized 82.64
hof-0.90-disqualification 78.51
hof-0.90-enthusiastically 88.42
hof-0.90-flibbertigibbets 83.47
hof-0.90-gastrointestinal 85.95
hof-0.90-hospitalizations 79.33
hof-0.90-hydroelectricity 85.95
hof-0.90-intellectualized 80.99
hof-0.90-lightheartedness 74.38
hof-0.90-melodramatically 77.68
hof-0.90-multimillionaire 71.90
hof-0.90-nationalizations 80.16
hof-0.90-neurotransmitter 84.29
hof-0.90-overcompensating 77.68
hof-0.90-photojournalists 85.12
hof-0.90-predetermination 76.03
hof-0.90-rambunctiousness 84.29
hof-0.90-sentimentalizing 80.16
hof-0.90-synchronizations 82.64
hof-0.90-teleconferencing 85.95
hof-0.90-transcendentally 70.24
hof-0.90-unscrupulousness 86.77
hof-0.90-whatchamacallits 77.68
