hof-0.30-acknowledgements 25.61
hof-0.30-administratively 19.83
hof-0.30-Australopithecus 17.35
hof-0.30-bloodthirstiness 21.48
hof-0.30-cinematographers 35.53
hof-0.30-counterespionage 19.00
hof-0.30-Czechoslovakians 24.79
hof-0.30-departmentalized 26.44
hof-0.30-disqualification 20.66
hof-0.30-enthusiastically 28.09
hof-0.30-flibbertigibbets 34.71
hof-0.30-gastrointestinal 23.14
hof-0.30-hospitalizations 22.31
hof-0.30-hydroelectricity 20.66
hof-0.30-intellectualized 23.14
hof-0.30-lightheartedness 21.48
hof-0.30-melodramatically 15.70
hof-0.30-multimillionaire 26.44
hof-0.30-nationalizations 14.04
hof-0.30-neurotransmitter 24.79
hof-0.30-overcompensating 23.14
hof-0.30-photojournalists 35.53
hof-0.30-predetermination 27.27
hof-0.30-rambunctiousness 25.61
hof-0.30-sentimentalizing 23.96
hof-0.30-synchronizations 26.44
hof-0.30-teleconferencing 47.10
hof-0.30-transcendentally 14.87
hof-0.30-unscrupulousness 35.53
hof-0.30-whatchamacallits 26.44
hof-0.45-acknowledgements 53.71
hof-0.45-administratively 26.44
hof-0.45-Australopithecus 26.44
hof-0.45-bloodthirstiness 42.97
hof-0.45-cinematographers 52.89
hof-0.45-counterespionage 40.49
hof-0.45-Czechoslovakians 41.32
hof-0.45-departmentalized 50.41
hof-0.45-disqualification 49.58
hof-0.45-enthusiastically 38.84
hof-0.45-flibbertigibbets 44.62
hof-0.45-gastrointestinal 42.14
hof-0.45-hospitalizations 42.97
hof-0.45-hydroelectricity 35.53
hof-0.45-intellectualized 39.66
hof-0.45-lightheartedness 45.45
hof-0.45-melodramatically 36.36
hof-0.45-multimillionaire 53.71
hof-0.45-nationalizations 38.84
hof-0.45-neurotransmitter 35.53
hof-0.45-overcompensating 43.80
hof-0.45-photojournalists 45.45
hof-0.45-predetermination 52.06
hof-0.45-rambunctiousness 42.97
hof-0.45-sentimentalizing 41.32
hof-0.45-synchronizations 44.62
hof-0.45-teleconferencing 55.37
hof-0.45-transcendentally 33.88
hof-0.45-unscrupulousness 50.41
hof-0.45-whatchamacallits 43.80
hof-0.60-acknowledgements 71.90
hof-0.60-administratively 43.80
hof-0.60-Australopithecus 57.85
hof-0.60-bloodthirstiness 61.15
hof-0.60-cinematographers 71.90
hof-0.60-counterespionage 57.02
hof-0.60-Czechoslovakians 65.28
hof-0.60-departmentalized 67.76
hof-0.60-disqualification 70.24
hof-0.60-enthusiastically 45.45
hof-0.60-flibbertigibbets 61.98
hof-0.60-gastrointestinal 66.94
hof-0.60-hospitalizations 61.15
hof-0.60-hydroelectricity 51.23
hof-0.60-intellectualized 76.85
hof-0.60-lightheartedness 71.90
hof-0.60-melodramatically 47.93
hof-0.60-multimillionaire 62.80
hof-0.60-nationalizations 67.76
hof-0.60-neurotransmitter 52.89
hof-0.60-overcompensating 68.59
hof-0.60-photojournalists 62.80
hof-0.60-predetermination 59.50
hof-0.60-rambunctiousness 59.50
hof-0.60-sentimentalizing 57.85
hof-0.60-synchronizations 71.07
hof-0.60-teleconferencing 71.07
hof-0.60-transcendentally 57.85
hof-0.60-unscrupulousness 64.46
hof-0.60-whatchamacallits 70.24
hof-0.75-acknowledgements 79.33
hof-0.75-administratively 64.46
hof-0.75-Australopithecus 75.20
hof-0.75-bloodthirstiness 71.07
hof-0.75-cinematographers 80.16
hof-0.75-counterespionage 76.85
hof-0.75-Czechoslovakians 76.03
hof-0.75-departmentalized 94.21
hof-0.75-disqualification 79.33
hof-0.75-enthusiastically 71.07
hof-0.75-flibbertigibbets 78.51
hof-0.75-gastrointestinal 85.12
hof-0.75-hospitalizations 69.42
hof-0.75-hydroelectricity 80.16
hof-0.75-intellectualized 94.21
hof-0.75-lightheartedness 78.51
hof-0.75-melodramatically 71.90
hof-0.75-multimillionaire 86.77
hof-0.75-nationalizations 73.55
hof-0.75-neurotransmitter 76.03
hof-0.75-overcompensating 85.95
hof-0.75-photojournalists 80.16
hof-0.75-predetermination 76.85
hof-0.75-rambunctiousness 76.85
hof-0.75-sentimentalizing 85.95
hof-0.75-synchronizations 87.60
hof-0.75-teleconferencing 71.07
hof-0.75-transcendentally 84.29
hof-0.75-unscrupulousness 73.55
hof-0.75-whatchamacallits 87.60
hof-0.90-acknowledgements 94.21
hof-0.90-administratively 72.72
hof-0.90-Australopithecus 94.21
hof-0.90-bloodthirstiness 80.16
hof-0.90-cinematographers 95.86
hof-0.90-counterespionage 84.29
hof-0.90-Czechoslovakians 92.56
hof-0.90-departmentalized 94.21
hof-0.90-disqualification 87.60
hof-0.90-enthusiastically 85.12
hof-0.90-flibbertigibbets 95.04
hof-0.90-gastrointestinal 94.21
hof-0.90-hospitalizations 95.04
hof-0.90-hydroelectricity 86.77
hof-0.90-intellectualized 94.21
hof-0.90-lightheartedness 88.42
hof-0.90-melodramatically 95.86
hof-0.90-multimillionaire 94.21
hof-0.90-nationalizations 85.12
hof-0.90-neurotransmitter 84.29
hof-0.90-overcompensating 85.95
hof-0.90-photojournalists 95.04
hof-0.90-predetermination 86.77
hof-0.90-rambunctiousness 94.21
hof-0.90-sentimentalizing 93.38
hof-0.90-synchronizations 95.04
hof-0.90-teleconferencing 87.60
hof-0.90-transcendentally 84.29
hof-0.90-unscrupulousness 73.55
hof-0.90-whatchamacallits 87.60
