hof-0.30-acknowledgements 28.67
hof-0.30-administratively 28.67
hof-0.30-Australopithecus 29.02
hof-0.30-bloodthirstiness 32.86
hof-0.30-cinematographers 32.51
hof-0.30-counterespionage 29.37
hof-0.30-Czechoslovakians 38.81
hof-0.30-departmentalized 28.67
hof-0.30-disqualification 32.51
hof-0.30-enthusiastically 32.51
hof-0.30-flibbertigibbets 32.16
hof-0.30-gastrointestinal 31.81
hof-0.30-hospitalizations 32.51
hof-0.30-hydroelectricity 32.51
hof-0.30-intellectualized 33.56
hof-0.30-lightheartedness 33.91
hof-0.30-melodramatically 32.51
hof-0.30-multimillionaire 32.51
hof-0.30-nationalizations 29.02
hof-0.30-neurotransmitter 31.81
hof-0.30-overcompensating 32.86
hof-0.30-photojournalists 28.67
hof-0.30-predetermination 24.47
hof-0.30-rambunctiousness 28.67
hof-0.30-sentimentalizing 32.16
hof-0.30-synchronizations 29.37
hof-0.30-teleconferencing 33.91
hof-0.30-transcendentally 25.17
hof-0.30-unscrupulousness 31.81
hof-0.30-whatchamacallits 31.46
hof-0.45-acknowledgements 46.85
hof-0.45-administratively 40.55
hof-0.45-Australopithecus 47.20
hof-0.45-bloodthirstiness 40.90
hof-0.45-cinematographers 48.60
hof-0.45-counterespionage 48.25
hof-0.45-Czechoslovakians 58.04
hof-0.45-departmentalized 45.45
hof-0.45-disqualification 47.90
hof-0.45-enthusiastically 47.55
hof-0.45-flibbertigibbets 43.35
hof-0.45-gastrointestinal 46.15
hof-0.45-hospitalizations 44.05
hof-0.45-hydroelectricity 44.40
hof-0.45-intellectualized 47.20
hof-0.45-lightheartedness 47.90
hof-0.45-melodramatically 47.20
hof-0.45-multimillionaire 44.05
hof-0.45-nationalizations 48.95
hof-0.45-neurotransmitter 43.70
hof-0.45-overcompensating 44.40
hof-0.45-photojournalists 44.75
hof-0.45-predetermination 40.55
hof-0.45-rambunctiousness 50.00
hof-0.45-sentimentalizing 49.65
hof-0.45-synchronizations 46.85
hof-0.45-teleconferencing 47.90
hof-0.45-transcendentally 37.76
hof-0.45-unscrupulousness 48.25
hof-0.45-whatchamacallits 42.30
hof-0.60-acknowledgements 57.34
hof-0.60-administratively 58.74
hof-0.60-Australopithecus 66.78
hof-0.60-bloodthirstiness 58.39
hof-0.60-cinematographers 62.93
hof-0.60-counterespionage 60.13
hof-0.60-Czechoslovakians 68.18
hof-0.60-departmentalized 60.13
hof-0.60-disqualification 59.09
hof-0.60-enthusiastically 59.44
hof-0.60-flibbertigibbets 58.74
hof-0.60-gastrointestinal 61.53
hof-0.60-hospitalizations 58.74
hof-0.60-hydroelectricity 55.94
hof-0.60-intellectualized 65.03
hof-0.60-lightheartedness 67.13
hof-0.60-melodramatically 61.53
hof-0.60-multimillionaire 63.63
hof-0.60-nationalizations 66.08
hof-0.60-neurotransmitter 62.23
hof-0.60-overcompensating 55.24
hof-0.60-photojournalists 56.99
hof-0.60-predetermination 53.49
hof-0.60-rambunctiousness 64.68
hof-0.60-sentimentalizing 61.53
hof-0.60-synchronizations 61.88
hof-0.60-teleconferencing 62.23
hof-0.60-transcendentally 54.54
hof-0.60-unscrupulousness 59.44
hof-0.60-whatchamacallits 56.99
hof-0.75-acknowledgements 72.37
hof-0.75-administratively 74.82
hof-0.75-Australopithecus 80.41
hof-0.75-bloodthirstiness 76.57
hof-0.75-cinematographers 73.07
hof-0.75-counterespionage 77.62
hof-0.75-Czechoslovakians 79.72
hof-0.75-departmentalized 76.22
hof-0.75-disqualification 73.77
hof-0.75-enthusiastically 76.57
hof-0.75-flibbertigibbets 74.82
hof-0.75-gastrointestinal 72.72
hof-0.75-hospitalizations 73.42
hof-0.75-hydroelectricity 74.47
hof-0.75-intellectualized 78.67
hof-0.75-lightheartedness 82.86
hof-0.75-melodramatically 76.22
hof-0.75-multimillionaire 72.72
hof-0.75-nationalizations 77.97
hof-0.75-neurotransmitter 84.26
hof-0.75-overcompensating 73.07
hof-0.75-photojournalists 71.32
hof-0.75-predetermination 67.13
hof-0.75-rambunctiousness 76.22
hof-0.75-sentimentalizing 74.12
hof-0.75-synchronizations 75.52
hof-0.75-teleconferencing 69.23
hof-0.75-transcendentally 72.02
hof-0.75-unscrupulousness 72.72
hof-0.75-whatchamacallits 74.82
hof-0.90-acknowledgements 88.46
hof-0.90-administratively 91.95
hof-0.90-Australopithecus 91.60
hof-0.90-bloodthirstiness 90.20
hof-0.90-cinematographers 86.36
hof-0.90-counterespionage 90.90
hof-0.90-Czechoslovakians 90.90
hof-0.90-departmentalized 91.25
hof-0.90-disqualification 88.11
hof-0.90-enthusiastically 90.55
hof-0.90-flibbertigibbets 86.71
hof-0.90-gastrointestinal 90.20
hof-0.90-hospitalizations 90.55
hof-0.90-hydroelectricity 83.56
hof-0.90-intellectualized 94.40
hof-0.90-lightheartedness 93.35
hof-0.90-melodramatically 91.60
hof-0.90-multimillionaire 88.46
hof-0.90-nationalizations 91.95
hof-0.90-neurotransmitter 91.60
hof-0.90-overcompensating 87.41
hof-0.90-photojournalists 92.65
hof-0.90-predetermination 83.21
hof-0.90-rambunctiousness 89.86
hof-0.90-sentimentalizing 89.86
hof-0.90-synchronizations 90.20
hof-0.90-teleconferencing 86.36
hof-0.90-transcendentally 90.55
hof-0.90-unscrupulousness 86.36
hof-0.90-whatchamacallits 89.51
