hof-0.30-acknowledgements 30.57
hof-0.30-administratively 19.83
hof-0.30-Australopithecus 17.35
hof-0.30-bloodthirstiness 21.48
hof-0.30-cinematographers 31.40
hof-0.30-counterespionage 19.00
hof-0.30-Czechoslovakians 32.23
hof-0.30-departmentalized 32.23
hof-0.30-disqualification 20.66
hof-0.30-enthusiastically 39.66
hof-0.30-flibbertigibbets 33.05
hof-0.30-gastrointestinal 23.14
hof-0.30-hospitalizations 36.36
hof-0.30-hydroelectricity 20.66
hof-0.30-intellectualized 23.14
hof-0.30-lightheartedness 21.48
hof-0.30-melodramatically 15.70
hof-0.30-multimillionaire 31.40
hof-0.30-nationalizations 14.04
hof-0.30-neurotransmitter 24.79
hof-0.30-overcompensating 23.14
hof-0.30-photojournalists 29.75
hof-0.30-predetermination 38.84
hof-0.30-rambunctiousness 42.97
hof-0.30-sentimentalizing 28.09
hof-0.30-synchronizations 32.23
hof-0.30-teleconferencing 42.14
hof-0.30-transcendentally 14.87
hof-0.30-unscrupulousness 40.49
hof-0.30-whatchamacallits 31.40
hof-0.45-acknowledgements 47.93
hof-0.45-administratively 29.75
hof-0.45-Australopithecus 30.57
hof-0.45-bloodthirstiness 56.19
hof-0.45-cinematographers 50.41
hof-0.45-counterespionage 47.10
hof-0.45-Czechoslovakians 51.23
hof-0.45-departmentalized 42.97
hof-0.45-disqualification 37.19
hof-0.45-enthusiastically 47.10
hof-0.45-flibbertigibbets 47.10
hof-0.45-gastrointestinal 41.32
hof-0.45-hospitalizations 47.10
hof-0.45-hydroelectricity 38.01
hof-0.45-intellectualized 28.92
hof-0.45-lightheartedness 31.40
hof-0.45-melodramatically 38.01
hof-0.45-multimillionaire 40.49
hof-0.45-nationalizations 30.57
hof-0.45-neurotransmitter 47.10
hof-0.45-overcompensating 41.32
hof-0.45-photojournalists 49.58
hof-0.45-predetermination 48.76
hof-0.45-rambunctiousness 42.97
hof-0.45-sentimentalizing 37.19
hof-0.45-synchronizations 48.76
hof-0.45-teleconferencing 59.50
hof-0.45-transcendentally 37.19
hof-0.45-unscrupulousness 57.85
hof-0.45-whatchamacallits 41.32
hof-0.60-acknowledgements 64.46
hof-0.60-administratively 50.41
hof-0.60-Australopithecus 49.58
hof-0.60-bloodthirstiness 65.28
hof-0.60-cinematographers 66.11
hof-0.60-counterespionage 57.85
hof-0.60-Czechoslovakians 71.07
hof-0.60-departmentalized 52.89
hof-0.60-disqualification 55.37
hof-0.60-enthusiastically 58.67
hof-0.60-flibbertigibbets 65.28
hof-0.60-gastrointestinal 57.85
hof-0.60-hospitalizations 66.11
hof-0.60-hydroelectricity 58.67
hof-0.60-intellectualized 48.76
hof-0.60-lightheartedness 57.02
hof-0.60-melodramatically 55.37
hof-0.60-multimillionaire 50.41
hof-0.60-nationalizations 55.37
hof-0.60-neurotransmitter 57.85
hof-0.60-overcompensating 48.76
hof-0.60-photojournalists 49.58
hof-0.60-predetermination 57.02
hof-0.60-rambunctiousness 60.33
hof-0.60-sentimentalizing 57.85
hof-0.60-synchronizations 67.76
hof-0.60-teleconferencing 68.59
hof-0.60-transcendentally 47.10
hof-0.60-unscrupulousness 76.85
hof-0.60-whatchamacallits 49.58
hof-0.75-acknowledgements 72.72
hof-0.75-administratively 76.85
hof-0.75-Australopithecus 58.67
hof-0.75-bloodthirstiness 83.47
hof-0.75-cinematographers 75.20
hof-0.75-counterespionage 67.76
hof-0.75-Czechoslovakians 86.77
hof-0.75-departmentalized 70.24
hof-0.75-disqualification 65.28
hof-0.75-enthusiastically 84.29
hof-0.75-flibbertigibbets 73.55
hof-0.75-gastrointestinal 69.42
hof-0.75-hospitalizations 75.20
hof-0.75-hydroelectricity 85.12
hof-0.75-intellectualized 59.50
hof-0.75-lightheartedness 75.20
hof-0.75-melodramatically 66.11
hof-0.75-multimillionaire 84.29
hof-0.75-nationalizations 82.64
hof-0.75-neurotransmitter 76.85
hof-0.75-overcompensating 83.47
hof-0.75-photojournalists 66.94
hof-0.75-predetermination 85.12
hof-0.75-rambunctiousness 68.59
hof-0.75-sentimentalizing 76.03
hof-0.75-synchronizations 76.03
hof-0.75-teleconferencing 85.12
hof-0.75-transcendentally 74.38
hof-0.75-unscrupulousness 87.60
hof-0.75-whatchamacallits 67.76
hof-0.90-acknowledgements 94.21
hof-0.90-administratively 87.60
hof-0.90-Australopithecus 84.29
hof-0.90-bloodthirstiness 95.04
hof-0.90-cinematographers 83.47
hof-0.90-counterespionage 86.77
hof-0.90-Czechoslovakians 100.00
hof-0.90-departmentalized 93.38
hof-0.90-disqualification 85.12
hof-0.90-enthusiastically 95.04
hof-0.90-flibbertigibbets 95.04
hof-0.90-gastrointestinal 85.95
hof-0.90-hospitalizations 93.38
hof-0.90-hydroelectricity 94.21
hof-0.90-intellectualized 76.03
hof-0.90-lightheartedness 83.47
hof-0.90-melodramatically 76.85
hof-0.90-multimillionaire 94.21
hof-0.90-nationalizations 92.56
hof-0.90-neurotransmitter 76.85
hof-0.90-overcompensating 93.38
hof-0.90-photojournalists 83.47
hof-0.90-predetermination 85.12
hof-0.90-rambunctiousness 85.95
hof-0.90-sentimentalizing 85.95
hof-0.90-synchronizations 94.21
hof-0.90-teleconferencing 95.04
hof-0.90-transcendentally 93.38
hof-0.90-unscrupulousness 95.86
hof-0.90-whatchamacallits 84.29
