2019-12-23 14:16:52   [1369197 ms] MUTANT_N {ORDER (OPERATOR, LOCATION, ATTRIBUTE)+}, FITNESS, [COMPARISON RESULTS]
2019-12-23 14:16:52   [1369197 ms] MUTANT_0{1 (RRO, 2, 4)}, 422.0, [1 0 1 1 1]
2019-12-23 14:16:52   [1369198 ms] MUTANT_1{1 (RTU, 1, 2)}, 590.0, [0 0 0 0 0]
2019-12-23 14:16:52   [1369205 ms] MUTANT_2{1 (RSC, 6, 4)}, 590.0, [0 0 0 0 0]
2019-12-23 14:16:52   [1369205 ms] MUTANT_3{1 (RGR, 1, 2)}, 590.0, [0 0 0 0 0]
2019-12-23 14:16:52   [1369205 ms] MUTANT_4{1 (RSC, 2, 3)}, 399.0, [1 1 2 1 1]
2019-12-23 14:16:52   [1369205 ms] MUTANT_5{1 (RRO, 7, 5)}, 590.0, [0 0 0 0 0]
2019-12-23 14:16:52   [1369206 ms] MUTANT_6{1 (PFP, 1, 1)}, 422.0, [1 0 1 1 1]
2019-12-23 14:16:52   [1369206 ms] MUTANT_7{1 (RSC, 6, 1)}, 590.0, [0 0 0 0 0]
2019-12-23 14:16:52   [1369206 ms] MUTANT_8{1 (RRO, 6, 2)}, 590.0, [0 0 0 0 0]
2019-12-23 14:16:52   [1369206 ms] MUTANT_9{1 (RSC, 5, 4)}, 590.0, [0 0 0 0 0]
2019-12-23 14:16:52   [1369206 ms] MUTANT_10{1 (RRO, 3, 1)}, 422.0, [1 0 1 1 1]
2019-12-23 14:16:52   [1369206 ms] MUTANT_11{1 (RTU, 3, 2)}, 590.0, [0 0 0 0 0]
2019-12-23 14:16:52   [1369206 ms] MUTANT_12{1 (RRO, 5, 1)}, 399.0, [1 2 2 1 1]
2019-12-23 14:16:52   [1369206 ms] MUTANT_13{1 (RRO, 4, 4)}, 399.0, [1 1 1 1 1]
2019-12-23 14:16:52   [1369207 ms] MUTANT_14{1 (RSC, 4, 3)}, 590.0, [0 0 0 0 0]
2019-12-23 14:16:52   [1369207 ms] MUTANT_15{1 (RRO, 3, 4)}, 422.0, [1 0 1 1 1]
2019-12-23 14:16:52   [1369207 ms] MUTANT_16{1 (RTU, 4, 2)}, 590.0, [0 0 0 0 0]
2019-12-23 14:16:52   [1369207 ms] MUTANT_17{1 (RRO, 4, 1)}, 481.0, [1 2 0 0 1]
2019-12-23 14:16:52   [1369207 ms] MUTANT_18{1 (RRO, 7, 2)}, 590.0, [0 0 0 0 0]
2019-12-23 14:16:52   [1369207 ms] MUTANT_19{1 (WLM, 1, 1)}, 590.0, [0 0 0 0 0]
2019-12-23 14:16:52   [1369208 ms] MUTANT_20{1 (RTU, 5, 2)}, 590.0, [0 0 0 0 0]
2019-12-23 14:16:52   [1369208 ms] MUTANT_21{1 (RTU, 2, 3)}, 590.0, [0 0 0 0 0]
2019-12-23 14:16:52   [1369208 ms] MUTANT_22{1 (RRO, 1, 3)}, 399.0, [1 1 1 1 1]
2019-12-23 14:16:52   [1369208 ms] MUTANT_23{1 (RRO, 5, 4)}, 399.0, [1 1 1 1 1]
2019-12-23 14:16:52   [1369212 ms] MUTANT_24{1 (RRO, 6, 1)}, 590.0, [0 0 0 0 0]
2019-12-23 14:16:52   [1369213 ms] MUTANT_25{1 (RSC, 4, 1)}, 590.0, [0 0 0 0 0]
2019-12-23 14:16:52   [1369213 ms] MUTANT_26{1 (RAO, 1, 2)}, 590.0, [0 0 0 0 0]
2019-12-23 14:16:52   [1369213 ms] MUTANT_27{1 (RRO, 7, 1)}, 590.0, [0 0 0 0 0]
2019-12-23 14:16:52   [1369213 ms] MUTANT_28{1 (RSC, 3, 1)}, 590.0, [0 0 0 0 0]
2019-12-23 14:16:52   [1369213 ms] MUTANT_29{1 (WTM, 1, 1)}, 590.0, [0 0 0 0 0]
2019-12-23 14:16:52   [1369213 ms] MUTANT_30{1 (RRO, 2, 3)}, 422.0, [1 0 1 1 1]
2019-12-23 14:16:52   [1369213 ms] MUTANT_31{1 (RSC, 6, 5)}, 590.0, [0 0 0 0 0]
2019-12-23 14:16:52   [1369213 ms] MUTANT_32{1 (RSC, 3, 4)}, 590.0, [0 0 0 0 0]
2019-12-23 14:16:52   [1369213 ms] MUTANT_33{1 (POM, 2, 1)}, 590.0, [0 0 0 0 0]
2019-12-23 14:16:52   [1369214 ms] MUTANT_34{1 (PNR, 1, 1)}, 399.0, [1 1 1 1 1]
2019-12-23 14:16:52   [1369214 ms] MUTANT_35{1 (PRE, 3, 1)}, 399.0, [1 1 1 1 1]
2019-12-23 14:16:52   [1369214 ms] MUTANT_36{1 (WLM, 1, 2)}, 590.0, [0 0 0 0 0]
2019-12-23 14:16:52   [1369214 ms] MUTANT_37{1 (RSC, 5, 1)}, 590.0, [0 0 0 0 0]
2019-12-23 14:16:52   [1369214 ms] MUTANT_38{1 (RTU, 3, 1)}, 590.0, [0 0 0 0 0]
2019-12-23 14:16:52   [1369214 ms] MUTANT_39{1 (WBL, 1, 1)}, 399.0, [1 1 1 1 1]
2019-12-23 14:16:52   [1369214 ms] MUTANT_40{1 (RLO, 3, 1)}, 399.0, [1 1 2 1 1]
2019-12-23 14:16:52   [1369214 ms] MUTANT_41{1 (RNO, 1, 2)}, 590.0, [0 0 0 0 0]
2019-12-23 14:16:52   [1369214 ms] MUTANT_42{1 (RSC, 1, 3)}, 422.0, [1 0 1 1 1]
2019-12-23 14:16:52   [1369214 ms] MUTANT_43{1 (RGR, 1, 1)}, 590.0, [0 0 0 0 0]
2019-12-23 14:16:52   [1369215 ms] MUTANT_44{1 (RRO, 6, 4)}, 590.0, [0 0 0 0 0]
2019-12-23 14:16:52   [1369215 ms] MUTANT_45{1 (RRO, 3, 3)}, 422.0, [1 0 1 1 1]
2019-12-23 14:16:52   [1369215 ms] MUTANT_46{1 (PNR, 2, 1)}, 590.0, [0 0 0 0 0]
2019-12-23 14:16:52   [1369215 ms] MUTANT_47{1 (POC, 3, 1)}, 399.0, [1 1 1 1 1]
2019-12-23 14:16:52   [1369215 ms] MUTANT_48{1 (PRE, 1, 1)}, 399.0, [1 1 1 1 1]
2019-12-23 14:16:52   [1369215 ms] MUTANT_49{1 (RTU, 4, 1)}, 590.0, [0 0 0 0 0]
2019-12-23 14:16:52   [1369215 ms] MUTANT_50{1 (RTU, 3, 4)}, 590.0, [0 0 0 0 0]
2019-12-23 14:16:52   [1369215 ms] MUTANT_51{1 (WTM, 1, 2)}, 590.0, [0 0 0 0 0]
2019-12-23 14:16:52   [1369215 ms] MUTANT_52{1 (RSC, 3, 5)}, 590.0, [0 0 0 0 0]
2019-12-23 14:16:52   [1369216 ms] MUTANT_53{1 (RLO, 2, 1)}, 485.0, [0 1 1 1 0]
2019-12-23 14:16:52   [1369216 ms] MUTANT_54{1 (WBT, 1, 1)}, 590.0, [0 0 0 0 0]
2019-12-23 14:16:52   [1369216 ms] MUTANT_55{1 (RTU, 5, 1)}, 590.0, [0 0 0 0 0]
2019-12-23 14:16:52   [1369216 ms] MUTANT_56{1 (POC, 2, 1)}, 590.0, [0 0 0 0 0]
2019-12-23 14:16:52   [1369216 ms] MUTANT_57{1 (RRO, 1, 2)}, 399.0, [1 1 1 1 1]
2019-12-23 14:16:52   [1369216 ms] MUTANT_58{1 (RTU, 2, 4)}, 590.0, [0 0 0 0 0]
2019-12-23 14:16:52   [1369216 ms] MUTANT_59{1 (RSC, 1, 1)}, 422.0, [1 0 1 1 1]
2019-12-23 14:16:52   [1369216 ms] MUTANT_60{1 (RSC, 4, 2)}, 590.0, [0 0 0 0 0]
2019-12-23 14:16:52   [1369216 ms] MUTANT_61{1 (RRO, 4, 3)}, 590.0, [0 0 0 0 0]
2019-12-23 14:16:52   [1369216 ms] MUTANT_62{1 (RAO, 1, 3)}, 590.0, [0 0 0 0 0]
2019-12-23 14:16:52   [1369217 ms] MUTANT_63{1 (RTU, 4, 4)}, 590.0, [0 0 0 0 0]
2019-12-23 14:16:52   [1369217 ms] MUTANT_64{1 (RTU, 5, 4)}, 399.0, [1 1 1 1 1]
2019-12-23 14:16:52   [1369217 ms] MUTANT_65{1 (RRO, 2, 2)}, 422.0, [1 0 1 1 1]
2019-12-23 14:16:52   [1369217 ms] MUTANT_66{1 (RRO, 7, 4)}, 590.0, [0 0 0 0 0]
2019-12-23 14:16:52   [1369217 ms] MUTANT_67{1 (RTU, 1, 4)}, 590.0, [0 0 0 0 0]
2019-12-23 14:16:52   [1369217 ms] MUTANT_68{1 (RSC, 6, 2)}, 590.0, [0 0 0 0 0]
2019-12-23 14:16:52   [1369217 ms] MUTANT_69{1 (RRO, 6, 3)}, 590.0, [0 0 0 0 0]
2019-12-23 14:16:52   [1369217 ms] MUTANT_70{1 (RLO, 4, 1)}, 590.0, [0 0 0 0 0]
2019-12-23 14:16:52   [1369217 ms] MUTANT_71{1 (POM, 1, 1)}, 590.0, [0 0 0 0 0]
2019-12-23 14:16:52   [1369217 ms] MUTANT_72{1 (RTU, 2, 1)}, 590.0, [0 0 0 0 0]
2019-12-23 14:16:52   [1369218 ms] MUTANT_73{1 (RLO, 1, 1)}, 399.0, [1 1 1 1 1]
2019-12-23 14:16:52   [1369218 ms] MUTANT_74{1 (RSC, 5, 5)}, 590.0, [0 0 0 0 0]
2019-12-23 14:16:52   [1369218 ms] MUTANT_75{1 (RSC, 2, 1)}, 399.0, [1 1 2 1 1]
2019-12-23 14:16:52   [1369218 ms] MUTANT_76{1 (PRE, 2, 1)}, 399.0, [1 1 1 1 1]
2019-12-23 14:16:52   [1369218 ms] MUTANT_77{1 (RSC, 2, 4)}, 590.0, [0 0 0 0 0]
2019-12-23 14:16:52   [1369218 ms] MUTANT_78{1 (RRO, 2, 5)}, 422.0, [1 0 1 1 1]
2019-12-23 14:16:52   [1369218 ms] MUTANT_79{1 (RTU, 1, 1)}, 590.0, [0 0 0 0 0]
2019-12-23 14:16:52   [1369218 ms] MUTANT_80{1 (RSC, 5, 2)}, 590.0, [0 0 0 0 0]
2019-12-23 14:16:52   [1369218 ms] MUTANT_81{1 (RRO, 5, 3)}, 590.0, [0 0 0 0 0]
2019-12-23 14:16:52   [1369219 ms] MUTANT_82{1 (RNO, 1, 1)}, 590.0, [0 0 0 0 0]
2019-12-23 14:16:52   [1369219 ms] MUTANT_83{1 (PFP, 3, 1)}, 590.0, [0 0 0 0 0]
2019-12-23 14:16:52   [1369219 ms] MUTANT_84{1 (RRO, 4, 2)}, 399.0, [1 1 1 1 1]
2019-12-23 14:16:52   [1369219 ms] MUTANT_85{1 (RSC, 5, 3)}, 590.0, [0 0 0 0 0]
2019-12-23 14:16:52   [1369219 ms] MUTANT_86{1 (RRO, 3, 2)}, 422.0, [1 0 1 1 1]
2019-12-23 14:16:52   [1369219 ms] MUTANT_87{1 (RTU, 3, 3)}, 590.0, [0 0 0 0 0]
2019-12-23 14:16:52   [1369219 ms] MUTANT_88{1 (RRO, 3, 5)}, 422.0, [1 0 1 1 1]
2019-12-23 14:16:52   [1369219 ms] MUTANT_89{1 (RSC, 1, 5)}, 590.0, [0 0 0 0 0]
2019-12-23 14:16:52   [1369219 ms] MUTANT_90{1 (RSC, 2, 2)}, 590.0, [0 0 0 0 0]
2019-12-23 14:16:52   [1369219 ms] MUTANT_91{1 (INC, 1, 1)}, 399.0, [1 1 1 1 1]
2019-12-23 14:16:52   [1369220 ms] MUTANT_92{1 (RTU, 4, 3)}, 590.0, [0 0 0 0 0]
2019-12-23 14:16:52   [1369220 ms] MUTANT_93{1 (RRO, 1, 1)}, 399.0, [1 1 1 1 1]
2019-12-23 14:16:52   [1369220 ms] MUTANT_94{1 (POC, 1, 1)}, 399.0, [1 1 1 1 1]
2019-12-23 14:16:52   [1369220 ms] MUTANT_95{1 (RSC, 2, 5)}, 590.0, [0 0 0 0 0]
2019-12-23 14:16:52   [1369220 ms] MUTANT_96{1 (RRO, 5, 2)}, 399.0, [1 1 1 1 1]
2019-12-23 14:16:52   [1369220 ms] MUTANT_97{1 (POM, 2, 2)}, 590.0, [0 0 0 0 0]
2019-12-23 14:16:52   [1369220 ms] MUTANT_98{1 (RAO, 1, 4)}, 590.0, [0 0 0 0 0]
2019-12-23 14:16:52   [1369220 ms] MUTANT_99{1 (RRO, 7, 3)}, 590.0, [0 0 0 0 0]
2019-12-23 14:16:52   [1369220 ms] MUTANT_100{1 (RRO, 2, 1)}, 422.0, [1 0 1 1 1]
2019-12-23 14:16:52   [1369220 ms] MUTANT_101{1 (RTU, 5, 3)}, 590.0, [0 0 0 0 0]
2019-12-23 14:16:52   [1369221 ms] MUTANT_102{1 (IRC, 1, 1)}, 399.0, [1 1 1 1 1]
2019-12-23 14:16:52   [1369221 ms] MUTANT_103{1 (RSC, 6, 3)}, 590.0, [0 0 0 0 0]
2019-12-23 14:16:52   [1369221 ms] MUTANT_104{1 (RTU, 2, 2)}, 590.0, [0 0 0 0 0]
2019-12-23 14:16:52   [1369229 ms] MUTANT_105{1 (POM, 1, 2)}, 590.0, [0 0 0 0 0]
2019-12-23 14:16:52   [1369229 ms] MUTANT_106{1 (PFP, 2, 1)}, 590.0, [0 0 0 0 0]
2019-12-23 14:16:52   [1369229 ms] MUTANT_107{1 (RAO, 1, 1)}, 590.0, [0 0 0 0 0]
