2020-01-02 17:51:49   [23911539 ms] MUTANT_N {ORDER (OPERATOR, LOCATION, ATTRIBUTE)+}, FITNESS, [COMPARISON RESULTS]
2020-01-02 17:51:49   [23911539 ms] MUTANT_0{1 (RAF, 1, 8)}, 33.0, [1]
2020-01-02 17:51:49   [23911540 ms] MUTANT_1{1 (RSC, 4, 4)}, 33.0, [1]
2020-01-02 17:51:49   [23911540 ms] MUTANT_2{1 (RAF, 3, 2)}, 33.0, [1]
2020-01-02 17:51:49   [23911540 ms] MUTANT_3{1 (RAF, 2, 8)}, 33.0, [1]
2020-01-02 17:51:49   [23911540 ms] MUTANT_4{1 (RAF, 3, 5)}, 127.0, [0]
2020-01-02 17:51:49   [23911541 ms] MUTANT_5{1 (PFP, 1, 1)}, 33.0, [1]
2020-01-02 17:51:49   [23911541 ms] MUTANT_6{1 (RNO, 6, 2)}, 127.0, [0]
2020-01-02 17:51:49   [23911541 ms] MUTANT_7{1 (RSC, 5, 1)}, 127.0, [0]
2020-01-02 17:51:49   [23911541 ms] MUTANT_8{1 (RNO, 3, 1)}, 127.0, [0]
2020-01-02 17:51:49   [23911542 ms] MUTANT_9{1 (RNO, 8, 2)}, 33.0, [1]
2020-01-02 17:51:49   [23911542 ms] MUTANT_10{1 (RAF, 1, 5)}, 33.0, [1]
2020-01-02 17:51:49   [23911542 ms] MUTANT_11{1 (RAF, 3, 8)}, 33.0, [1]
2020-01-02 17:51:49   [23911543 ms] MUTANT_12{1 (RSC, 6, 4)}, 127.0, [0]
2020-01-02 17:51:49   [23911543 ms] MUTANT_13{1 (RAF, 2, 11)}, 33.0, [1]
2020-01-02 17:51:49   [23911543 ms] MUTANT_14{1 (RNO, 5, 1)}, 33.0, [1]
2020-01-02 17:51:49   [23911543 ms] MUTANT_15{1 (RSC, 2, 3)}, 33.0, [1]
2020-01-02 17:51:49   [23911544 ms] MUTANT_16{1 (RAF, 1, 15)}, 33.0, [1]
2020-01-02 17:51:49   [23911544 ms] MUTANT_17{1 (RAF, 2, 14)}, 33.0, [1]
2020-01-02 17:51:49   [23911544 ms] MUTANT_18{1 (RSC, 5, 4)}, 127.0, [0]
2020-01-02 17:51:49   [23911544 ms] MUTANT_19{1 (RAF, 2, 1)}, 33.0, [1]
2020-01-02 17:51:49   [23911545 ms] MUTANT_20{1 (RSC, 1, 4)}, 127.0, [0]
2020-01-02 17:51:49   [23911545 ms] MUTANT_21{1 (RGR, 1, 2)}, 33.0, [1]
2020-01-02 17:51:49   [23911545 ms] MUTANT_22{1 (RNO, 7, 2)}, 33.0, [1]
2020-01-02 17:51:49   [23911545 ms] MUTANT_23{1 (RAF, 3, 11)}, 33.0, [1]
2020-01-02 17:51:49   [23911546 ms] MUTANT_24{1 (RSC, 6, 1)}, 33.0, [1]
2020-01-02 17:51:49   [23911546 ms] MUTANT_25{1 (RSC, 5, 5)}, 127.0, [0]
2020-01-02 17:51:49   [23911546 ms] MUTANT_26{1 (RAF, 1, 12)}, 33.0, [1]
2020-01-02 17:51:49   [23911546 ms] MUTANT_27{1 (RAF, 3, 1)}, 33.0, [1]
2020-01-02 17:51:49   [23911547 ms] MUTANT_28{1 (RAF, 3, 14)}, 33.0, [1]
2020-01-02 17:51:49   [23911547 ms] MUTANT_29{1 (RAF, 2, 4)}, 33.0, [1]
2020-01-02 17:51:49   [23911547 ms] MUTANT_30{1 (RNO, 6, 1)}, 127.0, [0]
2020-01-02 17:51:49   [23911547 ms] MUTANT_31{1 (RAO, 1, 2)}, 127.0, [0]
2020-01-02 17:51:49   [23911548 ms] MUTANT_32{1 (RSC, 6, 2)}, 33.0, [1]
2020-01-02 17:51:49   [23911548 ms] MUTANT_33{1 (RSC, 2, 1)}, 33.0, [1]
2020-01-02 17:51:49   [23911548 ms] MUTANT_34{1 (RNO, 7, 1)}, 33.0, [1]
2020-01-02 17:51:49   [23911548 ms] MUTANT_35{1 (RAF, 1, 9)}, 33.0, [1]
2020-01-02 17:51:49   [23911549 ms] MUTANT_36{1 (RSC, 5, 2)}, 127.0, [0]
2020-01-02 17:51:49   [23911549 ms] MUTANT_37{1 (RSC, 2, 4)}, 33.0, [1]
2020-01-02 17:51:49   [23911549 ms] MUTANT_38{1 (RGR, 2, 2)}, 33.0, [1]
2020-01-02 17:51:49   [23911549 ms] MUTANT_39{1 (RAF, 2, 7)}, 33.0, [1]
2020-01-02 17:51:49   [23911550 ms] MUTANT_40{1 (RNO, 9, 2)}, 127.0, [0]
2020-01-02 17:51:49   [23911550 ms] MUTANT_41{1 (RAF, 3, 4)}, 127.0, [0]
2020-01-02 17:51:49   [23911550 ms] MUTANT_42{1 (PRE, 3, 1)}, 33.0, [1]
2020-01-02 17:51:49   [23911550 ms] MUTANT_43{1 (RSC, 3, 1)}, 33.0, [1]
2020-01-02 17:51:49   [23911551 ms] MUTANT_44{1 (RSC, 1, 3)}, 33.0, [1]
2020-01-02 17:51:49   [23911551 ms] MUTANT_45{1 (RAF, 2, 10)}, 33.0, [1]
2020-01-02 17:51:49   [23911551 ms] MUTANT_46{1 (RSC, 6, 5)}, 33.0, [1]
2020-01-02 17:51:49   [23911552 ms] MUTANT_47{1 (RAF, 3, 7)}, 127.0, [0]
2020-01-02 17:51:49   [23911552 ms] MUTANT_48{1 (RLO, 3, 1)}, 33.0, [1]
2020-01-02 17:51:49   [23911552 ms] MUTANT_49{1 (RSC, 4, 1)}, 33.0, [1]
2020-01-02 17:51:49   [23911552 ms] MUTANT_50{1 (RAF, 1, 3)}, 33.0, [1]
2020-01-02 17:51:49   [23911553 ms] MUTANT_51{1 (RSC, 3, 4)}, 33.0, [1]
2020-01-02 17:51:49   [23911553 ms] MUTANT_52{1 (PRE, 1, 1)}, 33.0, [1]
2020-01-02 17:51:49   [23911553 ms] MUTANT_53{1 (RAF, 2, 13)}, 33.0, [1]
2020-01-02 17:51:49   [23911553 ms] MUTANT_54{1 (INC, 2, 1)}, 33.0, [1]
2020-01-02 17:51:49   [23911554 ms] MUTANT_55{1 (RSC, 1, 5)}, 33.0, [1]
2020-01-02 17:51:49   [23911554 ms] MUTANT_56{1 (RSC, 2, 5)}, 33.0, [1]
2020-01-02 17:51:49   [23911554 ms] MUTANT_57{1 (RGR, 1, 1)}, 33.0, [1]
2020-01-02 17:51:49   [23911554 ms] MUTANT_58{1 (RAF, 3, 10)}, 33.0, [1]
2020-01-02 17:51:49   [23911555 ms] MUTANT_59{1 (RGR, 2, 1)}, 33.0, [1]
2020-01-02 17:51:49   [23911555 ms] MUTANT_60{1 (RLO, 2, 1)}, 33.0, [1]
2020-01-02 17:51:49   [23911555 ms] MUTANT_61{1 (POC, 2, 1)}, 33.0, [1]
2020-01-02 17:51:49   [23911555 ms] MUTANT_62{1 (RSC, 6, 3)}, 127.0, [0]
2020-01-02 17:51:49   [23911556 ms] MUTANT_63{1 (IRC, 1, 1)}, 127.0, [0]
2020-01-02 17:51:49   [23911556 ms] MUTANT_64{1 (RAF, 1, 13)}, 33.0, [1]
2020-01-02 17:51:49   [23911556 ms] MUTANT_65{1 (RNO, 1, 2)}, 127.0, [0]
2020-01-02 17:51:49   [23911556 ms] MUTANT_66{1 (RAO, 1, 3)}, 33.0, [1]
2020-01-02 17:51:49   [23911556 ms] MUTANT_67{1 (RSC, 1, 2)}, 127.0, [0]
2020-01-02 17:51:49   [23911557 ms] MUTANT_68{1 (RSC, 3, 2)}, 33.0, [1]
2020-01-02 17:51:49   [23911557 ms] MUTANT_69{1 (RAF, 3, 13)}, 33.0, [1]
2020-01-02 17:51:49   [23911557 ms] MUTANT_70{1 (RNO, 2, 2)}, 33.0, [1]
2020-01-02 17:51:49   [23911557 ms] MUTANT_71{1 (RSC, 4, 2)}, 33.0, [1]
2020-01-02 17:51:49   [23911558 ms] MUTANT_72{1 (RLO, 4, 1)}, 33.0, [1]
2020-01-02 17:51:49   [23911558 ms] MUTANT_73{1 (RNO, 8, 1)}, 33.0, [1]
2020-01-02 17:51:49   [23911558 ms] MUTANT_74{1 (IRC, 2, 1)}, 127.0, [0]
2020-01-02 17:51:49   [23911558 ms] MUTANT_75{1 (RLO, 1, 1)}, 127.0, [0]
2020-01-02 17:51:49   [23911559 ms] MUTANT_76{1 (RSC, 3, 5)}, 127.0, [0]
2020-01-02 17:51:49   [23911559 ms] MUTANT_77{1 (RAF, 2, 6)}, 33.0, [1]
2020-01-02 17:51:49   [23911559 ms] MUTANT_78{1 (RSC, 4, 5)}, 33.0, [1]
2020-01-02 17:51:49   [23911559 ms] MUTANT_79{1 (PRE, 2, 1)}, 33.0, [1]
2020-01-02 17:51:49   [23911560 ms] MUTANT_80{1 (RNO, 9, 1)}, 33.0, [1]
2020-01-02 17:51:49   [23911560 ms] MUTANT_81{1 (RAF, 3, 3)}, 127.0, [0]
2020-01-02 17:51:49   [23911560 ms] MUTANT_82{1 (RAF, 1, 7)}, 33.0, [1]
2020-01-02 17:51:49   [23911560 ms] MUTANT_83{1 (RAF, 2, 9)}, 33.0, [1]
2020-01-02 17:51:49   [23911561 ms] MUTANT_84{1 (RAF, 3, 6)}, 33.0, [1]
2020-01-02 17:51:49   [23911561 ms] MUTANT_85{1 (PFP, 3, 1)}, 127.0, [0]
2020-01-02 17:51:49   [23911561 ms] MUTANT_86{1 (RNO, 4, 2)}, 33.0, [1]
2020-01-02 17:51:49   [23911561 ms] MUTANT_87{1 (RSC, 3, 3)}, 33.0, [1]
2020-01-02 17:51:49   [23911561 ms] MUTANT_88{1 (RSC, 1, 1)}, 127.0, [0]
2020-01-02 17:51:49   [23911562 ms] MUTANT_89{1 (RAF, 1, 4)}, 33.0, [1]
2020-01-02 17:51:49   [23911562 ms] MUTANT_90{1 (RNO, 3, 2)}, 127.0, [0]
2020-01-02 17:51:49   [23911562 ms] MUTANT_91{1 (RAF, 3, 9)}, 33.0, [1]
2020-01-02 17:51:49   [23911562 ms] MUTANT_92{1 (RAF, 2, 12)}, 33.0, [1]
2020-01-02 17:51:49   [23911563 ms] MUTANT_93{1 (RSC, 4, 3)}, 33.0, [1]
2020-01-02 17:51:49   [23911563 ms] MUTANT_94{1 (RAF, 1, 1)}, 33.0, [1]
2020-01-02 17:51:49   [23911563 ms] MUTANT_95{1 (RLO, 6, 1)}, 127.0, [0]
2020-01-02 17:51:49   [23911563 ms] MUTANT_96{1 (RNO, 1, 1)}, 33.0, [1]
2020-01-02 17:51:49   [23911563 ms] MUTANT_97{1 (POC, 1, 1)}, 33.0, [1]
2020-01-02 17:51:49   [23911564 ms] MUTANT_98{1 (RAF, 1, 14)}, 33.0, [1]
2020-01-02 17:51:49   [23911564 ms] MUTANT_99{1 (RSC, 5, 3)}, 33.0, [1]
2020-01-02 17:51:49   [23911564 ms] MUTANT_100{1 (RAF, 2, 15)}, 33.0, [1]
2020-01-02 17:51:49   [23911564 ms] MUTANT_101{1 (RNO, 5, 2)}, 127.0, [0]
2020-01-02 17:51:49   [23911565 ms] MUTANT_102{1 (RAF, 2, 2)}, 33.0, [1]
2020-01-02 17:51:49   [23911565 ms] MUTANT_103{1 (RAO, 1, 4)}, 127.0, [0]
2020-01-02 17:51:49   [23911565 ms] MUTANT_104{1 (RAF, 3, 12)}, 127.0, [0]
2020-01-02 17:51:49   [23911565 ms] MUTANT_105{1 (RAF, 1, 11)}, 33.0, [1]
2020-01-02 17:51:49   [23911565 ms] MUTANT_106{1 (RNO, 2, 1)}, 33.0, [1]
2020-01-02 17:51:49   [23911566 ms] MUTANT_107{1 (INC, 1, 1)}, 127.0, [0]
2020-01-02 17:51:49   [23911566 ms] MUTANT_108{1 (RAF, 3, 15)}, 33.0, [1]
2020-01-02 17:51:49   [23911566 ms] MUTANT_109{1 (RAO, 1, 1)}, 33.0, [1]
2020-01-02 17:51:49   [23911566 ms] MUTANT_110{1 (RAF, 2, 5)}, 33.0, [1]
2020-01-02 17:51:49   [23911567 ms] MUTANT_111{1 (RLO, 7, 1)}, 33.0, [1]
2020-01-02 17:51:49   [23911567 ms] MUTANT_112{1 (RSC, 2, 2)}, 33.0, [1]
