2019-12-22 13:03:49   [16181806 ms] MUTANT_N {ORDER (OPERATOR, LOCATION, ATTRIBUTE)+}, FITNESS, [COMPARISON RESULTS]
2019-12-22 13:03:49   [16181806 ms] MUTANT_0{1 (RRO, 2, 4)}, 292.0, [1 1 1 1 1]
2019-12-22 13:03:49   [16181806 ms] MUTANT_1{1 (RTU, 1, 2)}, 750.0, [0 0 0 0 0]
2019-12-22 13:03:49   [16181807 ms] MUTANT_2{1 (RNO, 19, 1)}, 292.0, [1 1 1 1 1]
2019-12-22 13:03:49   [16181807 ms] MUTANT_3{1 (RSC, 2, 3)}, 750.0, [0 0 0 0 0]
2019-12-22 13:03:49   [16181807 ms] MUTANT_4{1 (RNO, 23, 2)}, 750.0, [0 0 0 0 0]
2019-12-22 13:03:49   [16181807 ms] MUTANT_5{1 (RRO, 11, 3)}, 750.0, [0 0 0 0 0]
2019-12-22 13:03:49   [16181807 ms] MUTANT_6{1 (RRO, 7, 5)}, 292.0, [1 1 1 1 1]
2019-12-22 13:03:49   [16181807 ms] MUTANT_7{1 (RNO, 6, 1)}, 292.0, [1 1 1 1 1]
2019-12-22 13:03:49   [16181807 ms] MUTANT_8{1 (RNO, 20, 1)}, 292.0, [1 1 1 1 1]
2019-12-22 13:03:49   [16181808 ms] MUTANT_9{1 (WTM, 3, 1)}, 750.0, [0 0 0 0 0]
2019-12-22 13:03:49   [16181808 ms] MUTANT_10{1 (RLO, 8, 1)}, 292.0, [1 1 1 1 1]
2019-12-22 13:03:49   [16181808 ms] MUTANT_11{1 (RRO, 6, 2)}, 292.0, [1 1 1 1 1]
2019-12-22 13:03:49   [16181808 ms] MUTANT_12{1 (RRO, 5, 5)}, 292.0, [1 1 1 1 1]
2019-12-22 13:03:49   [16181808 ms] MUTANT_13{1 (RTU, 3, 2)}, 750.0, [0 0 0 0 0]
2019-12-22 13:03:49   [16181808 ms] MUTANT_14{1 (RRO, 13, 3)}, 750.0, [0 0 0 0 0]
2019-12-22 13:03:49   [16181809 ms] MUTANT_15{1 (RRO, 8, 2)}, 292.0, [1 1 1 1 1]
2019-12-22 13:03:49   [16181809 ms] MUTANT_16{1 (RNO, 9, 2)}, 292.0, [1 1 1 1 1]
2019-12-22 13:03:49   [16181809 ms] MUTANT_17{1 (RNO, 4, 1)}, 292.0, [1 1 1 1 1]
2019-12-22 13:03:49   [16181809 ms] MUTANT_18{1 (RNO, 22, 2)}, 750.0, [0 0 0 0 0]
2019-12-22 13:03:49   [16181809 ms] MUTANT_19{1 (RRO, 5, 1)}, 292.0, [1 1 1 1 1]
2019-12-22 13:03:49   [16181809 ms] MUTANT_20{1 (RNO, 18, 1)}, 292.0, [1 1 1 1 1]
2019-12-22 13:03:49   [16181809 ms] MUTANT_21{1 (RRO, 4, 4)}, 292.0, [1 1 1 1 1]
2019-12-22 13:03:49   [16181810 ms] MUTANT_22{1 (RSC, 3, 3)}, 750.0, [0 0 0 0 0]
2019-12-22 13:03:49   [16181810 ms] MUTANT_23{1 (RSC, 4, 3)}, 750.0, [0 0 0 0 0]
2019-12-22 13:03:49   [16181810 ms] MUTANT_24{1 (RNO, 12, 2)}, 292.0, [1 1 1 1 1]
2019-12-22 13:03:49   [16181810 ms] MUTANT_25{1 (RTU, 4, 2)}, 750.0, [0 0 0 0 0]
2019-12-22 13:03:49   [16181810 ms] MUTANT_26{1 (RNO, 21, 2)}, 292.0, [1 1 1 1 1]
2019-12-22 13:03:49   [16181810 ms] MUTANT_27{1 (RRO, 14, 3)}, 750.0, [0 0 0 0 0]
2019-12-22 13:03:49   [16181810 ms] MUTANT_28{1 (RNO, 8, 2)}, 292.0, [1 1 1 1 1]
2019-12-22 13:03:49   [16181811 ms] MUTANT_29{1 (RRO, 4, 1)}, 292.0, [1 1 1 1 1]
2019-12-22 13:03:49   [16181811 ms] MUTANT_30{1 (RRO, 7, 2)}, 292.0, [1 1 1 1 1]
2019-12-22 13:03:49   [16181811 ms] MUTANT_31{1 (WTM, 2, 1)}, 750.0, [0 0 0 0 0]
2019-12-22 13:03:49   [16181811 ms] MUTANT_32{1 (RRO, 11, 2)}, 292.0, [1 1 1 1 1]
2019-12-22 13:03:49   [16181811 ms] MUTANT_33{1 (RNO, 16, 1)}, 292.0, [1 1 1 1 1]
2019-12-22 13:03:49   [16181811 ms] MUTANT_34{1 (RTU, 2, 3)}, 750.0, [0 0 0 0 0]
2019-12-22 13:03:49   [16181811 ms] MUTANT_35{1 (RRO, 1, 3)}, 292.0, [1 1 1 1 1]
2019-12-22 13:03:49   [16181812 ms] MUTANT_36{1 (RRO, 14, 1)}, 292.0, [1 1 1 1 1]
2019-12-22 13:03:49   [16181812 ms] MUTANT_37{1 (RNO, 8, 1)}, 292.0, [1 1 1 1 1]
2019-12-22 13:03:49   [16181812 ms] MUTANT_38{1 (WTM, 4, 2)}, 292.0, [1 1 1 1 1]
2019-12-22 13:03:49   [16181812 ms] MUTANT_39{1 (RRO, 5, 4)}, 292.0, [1 1 1 1 1]
2019-12-22 13:03:49   [16181812 ms] MUTANT_40{1 (RSC, 4, 1)}, 750.0, [0 0 0 0 0]
2019-12-22 13:03:49   [16181812 ms] MUTANT_41{1 (RRO, 13, 4)}, 292.0, [1 1 1 1 1]
2019-12-22 13:03:49   [16181812 ms] MUTANT_42{1 (RSC, 3, 1)}, 750.0, [0 0 0 0 0]
2019-12-22 13:03:49   [16181813 ms] MUTANT_43{1 (RRO, 2, 3)}, 750.0, [0 0 0 0 0]
2019-12-22 13:03:49   [16181813 ms] MUTANT_44{1 (WTM, 1, 1)}, 750.0, [0 0 0 0 0]
2019-12-22 13:03:49   [16181813 ms] MUTANT_45{1 (RNO, 15, 1)}, 292.0, [1 1 1 1 1]
2019-12-22 13:03:49   [16181813 ms] MUTANT_46{1 (WBT, 3, 1)}, 292.0, [1 1 1 1 1]
2019-12-22 13:03:49   [16181813 ms] MUTANT_47{1 (RSC, 3, 4)}, 750.0, [0 0 0 0 0]
2019-12-22 13:03:49   [16181813 ms] MUTANT_48{1 (WBT, 2, 1)}, 292.0, [1 1 1 1 1]
2019-12-22 13:03:49   [16181813 ms] MUTANT_49{1 (RRO, 8, 5)}, 292.0, [1 1 1 1 1]
2019-12-22 13:03:49   [16181814 ms] MUTANT_50{1 (PRE, 3, 1)}, 292.0, [1 1 1 1 1]
2019-12-22 13:03:49   [16181814 ms] MUTANT_51{1 (RNO, 11, 2)}, 292.0, [1 1 1 1 1]
2019-12-22 13:03:49   [16181814 ms] MUTANT_52{1 (WTM, 3, 2)}, 292.0, [1 1 1 1 1]
2019-12-22 13:03:49   [16181814 ms] MUTANT_53{1 (RNO, 7, 1)}, 292.0, [1 1 1 1 1]
2019-12-22 13:03:49   [16181814 ms] MUTANT_54{1 (WTM, 2, 2)}, 292.0, [1 1 1 1 1]
2019-12-22 13:03:49   [16181814 ms] MUTANT_55{1 (RNO, 17, 1)}, 292.0, [1 1 1 1 1]
2019-12-22 13:03:49   [16181814 ms] MUTANT_56{1 (RRO, 15, 1)}, 292.0, [1 1 1 1 1]
2019-12-22 13:03:49   [16181814 ms] MUTANT_57{1 (RTU, 3, 1)}, 750.0, [0 0 0 0 0]
2019-12-22 13:03:49   [16181815 ms] MUTANT_58{1 (RNO, 10, 2)}, 292.0, [1 1 1 1 1]
2019-12-22 13:03:49   [16181815 ms] MUTANT_59{1 (RLO, 3, 1)}, 292.0, [1 1 1 1 1]
2019-12-22 13:03:49   [16181815 ms] MUTANT_60{1 (RNO, 1, 2)}, 292.0, [1 1 1 1 1]
2019-12-22 13:03:49   [16181815 ms] MUTANT_61{1 (RSC, 1, 3)}, 750.0, [0 0 0 0 0]
2019-12-22 13:03:49   [16181815 ms] MUTANT_62{1 (RRO, 6, 4)}, 292.0, [1 1 1 1 1]
2019-12-22 13:03:49   [16181815 ms] MUTANT_63{1 (PRE, 4, 1)}, 292.0, [1 1 1 1 1]
2019-12-22 13:03:49   [16181815 ms] MUTANT_64{1 (RNO, 19, 2)}, 292.0, [1 1 1 1 1]
2019-12-22 13:03:49   [16181816 ms] MUTANT_65{1 (RRO, 12, 3)}, 750.0, [0 0 0 0 0]
2019-12-22 13:03:49   [16181816 ms] MUTANT_66{1 (RSC, 4, 4)}, 750.0, [0 0 0 0 0]
2019-12-22 13:03:49   [16181816 ms] MUTANT_67{1 (PRE, 1, 1)}, 292.0, [1 1 1 1 1]
2019-12-22 13:03:49   [16181816 ms] MUTANT_68{1 (RTU, 4, 1)}, 750.0, [0 0 0 0 0]
2019-12-22 13:03:49   [16181816 ms] MUTANT_69{1 (RNO, 12, 1)}, 750.0, [0 0 0 0 0]
2019-12-22 13:03:49   [16181816 ms] MUTANT_70{1 (RTU, 3, 4)}, 750.0, [0 0 0 0 0]
2019-12-22 13:03:49   [16181816 ms] MUTANT_71{1 (WTM, 1, 2)}, 292.0, [1 1 1 1 1]
2019-12-22 13:03:49   [16181817 ms] MUTANT_72{1 (RNO, 2, 2)}, 750.0, [0 0 0 0 0]
2019-12-22 13:03:49   [16181817 ms] MUTANT_73{1 (RSC, 4, 5)}, 750.0, [0 0 0 0 0]
2019-12-22 13:03:49   [16181817 ms] MUTANT_74{1 (RLO, 2, 1)}, 292.0, [1 1 1 1 1]
2019-12-22 13:03:49   [16181817 ms] MUTANT_75{1 (WBT, 1, 1)}, 750.0, [0 0 0 0 0]
2019-12-22 13:03:49   [16181817 ms] MUTANT_76{1 (RRO, 1, 2)}, 292.0, [1 1 1 1 1]
2019-12-22 13:03:49   [16181817 ms] MUTANT_77{1 (RSC, 1, 1)}, 750.0, [0 0 0 0 0]
2019-12-22 13:03:49   [16181817 ms] MUTANT_78{1 (RTU, 2, 4)}, 750.0, [0 0 0 0 0]
2019-12-22 13:03:49   [16181818 ms] MUTANT_79{1 (RNO, 16, 2)}, 292.0, [1 1 1 1 1]
2019-12-22 13:03:49   [16181818 ms] MUTANT_80{1 (RSC, 4, 2)}, 750.0, [0 0 0 0 0]
2019-12-22 13:03:49   [16181818 ms] MUTANT_81{1 (RRO, 4, 3)}, 750.0, [0 0 0 0 0]
2019-12-22 13:03:49   [16181818 ms] MUTANT_82{1 (RRO, 15, 2)}, 292.0, [1 1 1 1 1]
2019-12-22 13:03:49   [16181818 ms] MUTANT_83{1 (RRO, 12, 5)}, 292.0, [1 1 1 1 1]
2019-12-22 13:03:49   [16181818 ms] MUTANT_84{1 (RTU, 4, 4)}, 750.0, [0 0 0 0 0]
2019-12-22 13:03:49   [16181818 ms] MUTANT_85{1 (RNO, 18, 2)}, 292.0, [1 1 1 1 1]
2019-12-22 13:03:49   [16181819 ms] MUTANT_86{1 (RNO, 14, 1)}, 292.0, [1 1 1 1 1]
2019-12-22 13:03:49   [16181819 ms] MUTANT_87{1 (RRO, 2, 2)}, 292.0, [1 1 1 1 1]
2019-12-22 13:03:49   [16181819 ms] MUTANT_88{1 (RTU, 1, 4)}, 750.0, [0 0 0 0 0]
2019-12-22 13:03:49   [16181819 ms] MUTANT_89{1 (RNO, 10, 1)}, 292.0, [1 1 1 1 1]
2019-12-22 13:03:49   [16181819 ms] MUTANT_90{1 (RSC, 1, 4)}, 750.0, [0 0 0 0 0]
2019-12-22 13:03:49   [16181819 ms] MUTANT_91{1 (RRO, 6, 3)}, 750.0, [0 0 0 0 0]
2019-12-22 13:03:49   [16181819 ms] MUTANT_92{1 (RRO, 15, 5)}, 292.0, [1 1 1 1 1]
2019-12-22 13:03:49   [16181820 ms] MUTANT_93{1 (RLO, 4, 1)}, 292.0, [1 1 1 1 1]
2019-12-22 13:03:49   [16181820 ms] MUTANT_94{1 (RTU, 2, 1)}, 750.0, [0 0 0 0 0]
2019-12-22 13:03:49   [16181820 ms] MUTANT_95{1 (RLO, 1, 1)}, 292.0, [1 1 1 1 1]
2019-12-22 13:03:49   [16181820 ms] MUTANT_96{1 (RRO, 8, 1)}, 292.0, [1 1 1 1 1]
2019-12-22 13:03:49   [16181820 ms] MUTANT_97{1 (RSC, 2, 1)}, 750.0, [0 0 0 0 0]
2019-12-22 13:03:49   [16181820 ms] MUTANT_98{1 (RNO, 3, 2)}, 292.0, [1 1 1 1 1]
2019-12-22 13:03:49   [16181820 ms] MUTANT_99{1 (RLO, 5, 1)}, 292.0, [1 1 1 1 1]
2019-12-22 13:03:49   [16181820 ms] MUTANT_100{1 (RRO, 13, 1)}, 292.0, [1 1 1 1 1]
2019-12-22 13:03:49   [16181821 ms] MUTANT_101{1 (PRE, 2, 1)}, 292.0, [1 1 1 1 1]
2019-12-22 13:03:49   [16181821 ms] MUTANT_102{1 (RSC, 2, 4)}, 750.0, [0 0 0 0 0]
2019-12-22 13:03:49   [16181821 ms] MUTANT_103{1 (RTU, 1, 1)}, 750.0, [0 0 0 0 0]
2019-12-22 13:03:49   [16181821 ms] MUTANT_104{1 (RNO, 17, 2)}, 292.0, [1 1 1 1 1]
2019-12-22 13:03:49   [16181821 ms] MUTANT_105{1 (RRO, 8, 4)}, 292.0, [1 1 1 1 1]
2019-12-22 13:03:49   [16181821 ms] MUTANT_106{1 (RNO, 23, 1)}, 750.0, [0 0 0 0 0]
2019-12-22 13:03:49   [16181821 ms] MUTANT_107{1 (RNO, 1, 1)}, 292.0, [1 1 1 1 1]
2019-12-22 13:03:49   [16181822 ms] MUTANT_108{1 (WBT, 4, 1)}, 292.0, [1 1 1 1 1]
2019-12-22 13:03:49   [16181822 ms] MUTANT_109{1 (RSC, 1, 2)}, 750.0, [0 0 0 0 0]
2019-12-22 13:03:49   [16181822 ms] MUTANT_110{1 (RRO, 15, 3)}, 750.0, [0 0 0 0 0]
2019-12-22 13:03:49   [16181822 ms] MUTANT_111{1 (RNO, 6, 2)}, 292.0, [1 1 1 1 1]
2019-12-22 13:03:49   [16181822 ms] MUTANT_112{1 (RRO, 4, 2)}, 292.0, [1 1 1 1 1]
2019-12-22 13:03:49   [16181822 ms] MUTANT_113{1 (RRO, 8, 3)}, 750.0, [0 0 0 0 0]
2019-12-22 13:03:49   [16181822 ms] MUTANT_114{1 (RNO, 13, 2)}, 292.0, [1 1 1 1 1]
2019-12-22 13:03:49   [16181822 ms] MUTANT_115{1 (RNO, 2, 1)}, 382.0, [1 1 1 0 1]
2019-12-22 13:03:49   [16181823 ms] MUTANT_116{1 (RTU, 3, 3)}, 750.0, [0 0 0 0 0]
2019-12-22 13:03:49   [16181823 ms] MUTANT_117{1 (RRO, 9, 3)}, 750.0, [0 0 0 0 0]
2019-12-22 13:03:49   [16181823 ms] MUTANT_118{1 (RNO, 7, 2)}, 292.0, [1 1 1 1 1]
2019-12-22 13:03:49   [16181823 ms] MUTANT_119{1 (RSC, 1, 5)}, 750.0, [0 0 0 0 0]
2019-12-22 13:03:49   [16181823 ms] MUTANT_120{1 (RSC, 2, 2)}, 750.0, [0 0 0 0 0]
2019-12-22 13:03:49   [16181823 ms] MUTANT_121{1 (RLO, 6, 1)}, 292.0, [1 1 1 1 1]
2019-12-22 13:03:49   [16181823 ms] MUTANT_122{1 (RNO, 22, 1)}, 750.0, [0 0 0 0 0]
2019-12-22 13:03:49   [16181824 ms] MUTANT_123{1 (RTU, 4, 3)}, 750.0, [0 0 0 0 0]
2019-12-22 13:03:49   [16181824 ms] MUTANT_124{1 (RRO, 1, 1)}, 382.0, [1 1 1 0 1]
2019-12-22 13:03:49   [16181824 ms] MUTANT_125{1 (RNO, 3, 1)}, 292.0, [1 1 1 1 1]
2019-12-22 13:03:49   [16181824 ms] MUTANT_126{1 (RNO, 21, 1)}, 292.0, [1 1 1 1 1]
2019-12-22 13:03:49   [16181824 ms] MUTANT_127{1 (RNO, 15, 2)}, 292.0, [1 1 1 1 1]
2019-12-22 13:03:49   [16181824 ms] MUTANT_128{1 (RRO, 11, 4)}, 292.0, [1 1 1 1 1]
2019-12-22 13:03:49   [16181824 ms] MUTANT_129{1 (RRO, 7, 3)}, 750.0, [0 0 0 0 0]
2019-12-22 13:03:49   [16181825 ms] MUTANT_130{1 (RRO, 13, 2)}, 292.0, [1 1 1 1 1]
2019-12-22 13:03:49   [16181825 ms] MUTANT_131{1 (RRO, 11, 1)}, 292.0, [1 1 1 1 1]
2019-12-22 13:03:49   [16181825 ms] MUTANT_132{1 (RRO, 2, 1)}, 292.0, [1 1 1 1 1]
2019-12-22 13:03:49   [16181825 ms] MUTANT_133{1 (RRO, 1, 4)}, 292.0, [1 1 1 1 1]
2019-12-22 13:03:49   [16181825 ms] MUTANT_134{1 (RTU, 2, 2)}, 750.0, [0 0 0 0 0]
2019-12-22 13:03:49   [16181825 ms] MUTANT_135{1 (RRO, 10, 4)}, 292.0, [1 1 1 1 1]
2019-12-22 13:03:49   [16181825 ms] MUTANT_136{1 (RRO, 14, 2)}, 292.0, [1 1 1 1 1]
2019-12-22 13:03:49   [16181825 ms] MUTANT_137{1 (WTM, 4, 1)}, 750.0, [0 0 0 0 0]
2019-12-22 13:03:49   [16181825 ms] MUTANT_138{1 (RLO, 7, 1)}, 292.0, [1 1 1 1 1]
2019-12-22 13:03:49   [16181826 ms] MUTANT_139{1 (RRO, 4, 5)}, 292.0, [1 1 1 1 1]
