2019-12-22 13:15:56   [1040857 ms] MUTANT_N {ORDER (OPERATOR, LOCATION, ATTRIBUTE)+}, FITNESS, [COMPARISON RESULTS]
2019-12-22 13:15:56   [1040857 ms] MUTANT_0{1 (RRO, 4, 2)}, 21.0, [1]
2019-12-22 13:15:56   [1040858 ms] MUTANT_1{1 (PRE, 1, 1)}, 21.0, [1]
2019-12-22 13:15:56   [1040858 ms] MUTANT_2{1 (RRO, 3, 5)}, 21.0, [1]
2019-12-22 13:15:56   [1040858 ms] MUTANT_3{1 (RSC, 1, 2)}, 21.0, [1]
2019-12-22 13:15:56   [1040859 ms] MUTANT_4{1 (IRC, 2, 1)}, 21.0, [1]
2019-12-22 13:15:56   [1040859 ms] MUTANT_5{1 (RSC, 3, 5)}, 50.0, [0]
2019-12-22 13:15:56   [1040859 ms] MUTANT_6{1 (RAO, 1, 2)}, 21.0, [1]
2019-12-22 13:15:56   [1040859 ms] MUTANT_7{1 (RSC, 4, 5)}, 50.0, [0]
2019-12-22 13:15:56   [1040859 ms] MUTANT_8{1 (INC, 3, 1)}, 21.0, [1]
2019-12-22 13:15:56   [1040860 ms] MUTANT_9{1 (RRO, 3, 2)}, 21.0, [1]
2019-12-22 13:15:56   [1040860 ms] MUTANT_10{1 (RNO, 1, 2)}, 50.0, [0]
2019-12-22 13:15:56   [1040860 ms] MUTANT_11{1 (RSC, 3, 4)}, 21.0, [1]
2019-12-22 13:15:56   [1040860 ms] MUTANT_12{1 (RSC, 4, 2)}, 21.0, [1]
2019-12-22 13:15:56   [1040860 ms] MUTANT_13{1 (PFP, 1, 1)}, 21.0, [1]
2019-12-22 13:15:56   [1040861 ms] MUTANT_14{1 (RSC, 1, 5)}, 50.0, [0]
2019-12-22 13:15:56   [1040861 ms] MUTANT_15{1 (RAO, 1, 3)}, 21.0, [1]
2019-12-22 13:15:56   [1040861 ms] MUTANT_16{1 (INC, 1, 1)}, 21.0, [1]
2019-12-22 13:15:56   [1040861 ms] MUTANT_17{1 (POC, 1, 1)}, 21.0, [1]
2019-12-22 13:15:56   [1040862 ms] MUTANT_18{1 (RNO, 1, 1)}, 21.0, [1]
2019-12-22 13:15:56   [1040862 ms] MUTANT_19{1 (RRO, 2, 2)}, 21.0, [1]
2019-12-22 13:15:56   [1040862 ms] MUTANT_20{1 (RSC, 1, 4)}, 50.0, [0]
2019-12-22 13:15:56   [1040862 ms] MUTANT_21{1 (RRO, 5, 5)}, 21.0, [1]
2019-12-22 13:15:56   [1040862 ms] MUTANT_22{1 (RRO, 4, 4)}, 50.0, [0]
2019-12-22 13:15:56   [1040863 ms] MUTANT_23{1 (RSC, 2, 5)}, 50.0, [0]
2019-12-22 13:15:56   [1040863 ms] MUTANT_24{1 (RSC, 3, 3)}, 21.0, [1]
2019-12-22 13:15:56   [1040863 ms] MUTANT_25{1 (RSC, 4, 3)}, 21.0, [1]
2019-12-22 13:15:56   [1040863 ms] MUTANT_26{1 (RAO, 1, 4)}, 50.0, [0]
2019-12-22 13:15:56   [1040864 ms] MUTANT_27{1 (RLO, 1, 1)}, 21.0, [1]
2019-12-22 13:15:56   [1040864 ms] MUTANT_28{1 (RRO, 5, 2)}, 50.0, [0]
2019-12-22 13:15:56   [1040864 ms] MUTANT_29{1 (RRO, 4, 1)}, 21.0, [1]
2019-12-22 13:15:56   [1040864 ms] MUTANT_30{1 (RRO, 1, 4)}, 21.0, [1]
2019-12-22 13:15:56   [1040864 ms] MUTANT_31{1 (IRC, 3, 1)}, 50.0, [0]
2019-12-22 13:15:56   [1040865 ms] MUTANT_32{1 (IRC, 1, 1)}, 21.0, [1]
2019-12-22 13:15:56   [1040865 ms] MUTANT_33{1 (RRO, 3, 4)}, 50.0, [0]
2019-12-22 13:15:56   [1040870 ms] MUTANT_34{1 (RSC, 1, 3)}, 50.0, [0]
2019-12-22 13:15:56   [1040870 ms] MUTANT_35{1 (RRO, 5, 4)}, 21.0, [1]
2019-12-22 13:15:56   [1040870 ms] MUTANT_36{1 (RRO, 4, 5)}, 21.0, [1]
2019-12-22 13:15:56   [1040870 ms] MUTANT_37{1 (RAO, 1, 1)}, 21.0, [1]
2019-12-22 13:15:56   [1040871 ms] MUTANT_38{1 (RSC, 4, 4)}, 50.0, [0]
2019-12-22 13:15:56   [1040871 ms] MUTANT_39{1 (RSC, 3, 2)}, 50.0, [0]
