2020-01-02 18:45:42   [23439666 ms] MUTANT_N {ORDER (OPERATOR, LOCATION, ATTRIBUTE)+}, FITNESS, [COMPARISON RESULTS]
2020-01-02 18:45:42   [23439667 ms] MUTANT_0{1 (RAF, 1, 8)}, 36.0, [1]
2020-01-02 18:45:42   [23439667 ms] MUTANT_1{1 (RSC, 4, 4)}, 36.0, [1]
2020-01-02 18:45:42   [23439667 ms] MUTANT_2{1 (RAF, 3, 2)}, 36.0, [1]
2020-01-02 18:45:42   [23439668 ms] MUTANT_3{1 (RAF, 3, 5)}, 122.0, [0]
2020-01-02 18:45:42   [23439668 ms] MUTANT_4{1 (PFP, 1, 1)}, 36.0, [1]
2020-01-02 18:45:42   [23439668 ms] MUTANT_5{1 (RNO, 6, 2)}, 122.0, [0]
2020-01-02 18:45:42   [23439668 ms] MUTANT_6{1 (RSC, 5, 1)}, 122.0, [0]
2020-01-02 18:45:42   [23439669 ms] MUTANT_7{1 (RNO, 3, 1)}, 122.0, [0]
2020-01-02 18:45:42   [23439669 ms] MUTANT_8{1 (RNO, 8, 2)}, 36.0, [1]
2020-01-02 18:45:42   [23439669 ms] MUTANT_9{1 (RAF, 2, 11)}, 36.0, [1]
2020-01-02 18:45:42   [23439669 ms] MUTANT_10{1 (RSC, 6, 4)}, 122.0, [0]
2020-01-02 18:45:42   [23439669 ms] MUTANT_11{1 (RNO, 5, 1)}, 36.0, [1]
2020-01-02 18:45:42   [23439670 ms] MUTANT_12{1 (RAF, 1, 15)}, 36.0, [1]
2020-01-02 18:45:42   [23439670 ms] MUTANT_13{1 (RAF, 2, 14)}, 36.0, [1]
2020-01-02 18:45:42   [23439670 ms] MUTANT_14{1 (RSC, 5, 4)}, 122.0, [0]
2020-01-02 18:45:42   [23439670 ms] MUTANT_15{1 (RSC, 1, 4)}, 122.0, [0]
2020-01-02 18:45:42   [23439671 ms] MUTANT_16{1 (RAF, 2, 1)}, 36.0, [1]
2020-01-02 18:45:42   [23439671 ms] MUTANT_17{1 (RGR, 1, 2)}, 36.0, [1]
2020-01-02 18:45:42   [23439671 ms] MUTANT_18{1 (RNO, 7, 2)}, 36.0, [1]
2020-01-02 18:45:42   [23439671 ms] MUTANT_19{1 (RAF, 3, 11)}, 36.0, [1]
2020-01-02 18:45:42   [23439671 ms] MUTANT_20{1 (RSC, 6, 1)}, 36.0, [1]
2020-01-02 18:45:42   [23439672 ms] MUTANT_21{1 (RSC, 5, 5)}, 122.0, [0]
2020-01-02 18:45:42   [23439672 ms] MUTANT_22{1 (RAF, 1, 12)}, 36.0, [1]
2020-01-02 18:45:42   [23439672 ms] MUTANT_23{1 (RAF, 3, 14)}, 36.0, [1]
2020-01-02 18:45:42   [23439672 ms] MUTANT_24{1 (RAF, 3, 1)}, 36.0, [1]
2020-01-02 18:45:42   [23439673 ms] MUTANT_25{1 (RAF, 2, 4)}, 36.0, [1]
2020-01-02 18:45:42   [23439673 ms] MUTANT_26{1 (RNO, 6, 1)}, 122.0, [0]
2020-01-02 18:45:42   [23439673 ms] MUTANT_27{1 (RAO, 1, 2)}, 122.0, [0]
2020-01-02 18:45:42   [23439674 ms] MUTANT_28{1 (RSC, 6, 2)}, 36.0, [1]
2020-01-02 18:45:42   [23439686 ms] MUTANT_29{1 (RNO, 7, 1)}, 36.0, [1]
2020-01-02 18:45:42   [23439686 ms] MUTANT_30{1 (RSC, 2, 1)}, 36.0, [1]
2020-01-02 18:45:42   [23439687 ms] MUTANT_31{1 (RSC, 5, 2)}, 122.0, [0]
2020-01-02 18:45:42   [23439687 ms] MUTANT_32{1 (RSC, 2, 4)}, 36.0, [1]
2020-01-02 18:45:42   [23439687 ms] MUTANT_33{1 (RGR, 2, 2)}, 36.0, [1]
2020-01-02 18:45:42   [23439687 ms] MUTANT_34{1 (RNO, 9, 2)}, 122.0, [0]
2020-01-02 18:45:42   [23439687 ms] MUTANT_35{1 (RAF, 3, 4)}, 122.0, [0]
2020-01-02 18:45:42   [23439688 ms] MUTANT_36{1 (PRE, 3, 1)}, 36.0, [1]
2020-01-02 18:45:42   [23439688 ms] MUTANT_37{1 (RSC, 1, 3)}, 36.0, [1]
2020-01-02 18:45:42   [23439688 ms] MUTANT_38{1 (RAF, 1, 6)}, 36.0, [1]
2020-01-02 18:45:42   [23439688 ms] MUTANT_39{1 (RAF, 2, 10)}, 36.0, [1]
2020-01-02 18:45:42   [23439689 ms] MUTANT_40{1 (RSC, 6, 5)}, 36.0, [1]
2020-01-02 18:45:42   [23439689 ms] MUTANT_41{1 (RAF, 3, 7)}, 122.0, [0]
2020-01-02 18:45:42   [23439689 ms] MUTANT_42{1 (RLO, 3, 1)}, 36.0, [1]
2020-01-02 18:45:42   [23439689 ms] MUTANT_43{1 (RSC, 4, 1)}, 36.0, [1]
2020-01-02 18:45:42   [23439690 ms] MUTANT_44{1 (RAF, 1, 3)}, 36.0, [1]
2020-01-02 18:45:42   [23439690 ms] MUTANT_45{1 (RSC, 3, 4)}, 36.0, [1]
2020-01-02 18:45:42   [23439690 ms] MUTANT_46{1 (PRE, 1, 1)}, 36.0, [1]
2020-01-02 18:45:42   [23439690 ms] MUTANT_47{1 (POC, 3, 1)}, 36.0, [1]
2020-01-02 18:45:42   [23439691 ms] MUTANT_48{1 (RAF, 2, 13)}, 36.0, [1]
2020-01-02 18:45:42   [23439691 ms] MUTANT_49{1 (INC, 2, 1)}, 36.0, [1]
2020-01-02 18:45:42   [23439691 ms] MUTANT_50{1 (RSC, 1, 5)}, 36.0, [1]
2020-01-02 18:45:42   [23439691 ms] MUTANT_51{1 (RSC, 2, 5)}, 36.0, [1]
2020-01-02 18:45:42   [23439691 ms] MUTANT_52{1 (RGR, 1, 1)}, 36.0, [1]
2020-01-02 18:45:42   [23439692 ms] MUTANT_53{1 (RGR, 2, 1)}, 36.0, [1]
2020-01-02 18:45:42   [23439692 ms] MUTANT_54{1 (RAF, 3, 10)}, 36.0, [1]
2020-01-02 18:45:42   [23439692 ms] MUTANT_55{1 (RLO, 2, 1)}, 36.0, [1]
2020-01-02 18:45:42   [23439692 ms] MUTANT_56{1 (POC, 2, 1)}, 36.0, [1]
2020-01-02 18:45:42   [23439693 ms] MUTANT_57{1 (RSC, 6, 3)}, 122.0, [0]
2020-01-02 18:45:42   [23439693 ms] MUTANT_58{1 (IRC, 1, 1)}, 122.0, [0]
2020-01-02 18:45:42   [23439693 ms] MUTANT_59{1 (RAF, 1, 13)}, 36.0, [1]
2020-01-02 18:45:42   [23439693 ms] MUTANT_60{1 (RNO, 1, 2)}, 122.0, [0]
2020-01-02 18:45:42   [23439693 ms] MUTANT_61{1 (RAO, 1, 3)}, 36.0, [1]
2020-01-02 18:45:42   [23439694 ms] MUTANT_62{1 (RAF, 2, 3)}, 36.0, [1]
2020-01-02 18:45:42   [23439694 ms] MUTANT_63{1 (RSC, 1, 2)}, 122.0, [0]
2020-01-02 18:45:42   [23439694 ms] MUTANT_64{1 (RSC, 3, 2)}, 36.0, [1]
2020-01-02 18:45:42   [23439694 ms] MUTANT_65{1 (RAF, 1, 10)}, 36.0, [1]
2020-01-02 18:45:42   [23439694 ms] MUTANT_66{1 (RNO, 2, 2)}, 36.0, [1]
2020-01-02 18:45:42   [23439695 ms] MUTANT_67{1 (RSC, 4, 2)}, 36.0, [1]
2020-01-02 18:45:42   [23439695 ms] MUTANT_68{1 (RLO, 4, 1)}, 36.0, [1]
2020-01-02 18:45:42   [23439695 ms] MUTANT_69{1 (RNO, 8, 1)}, 36.0, [1]
2020-01-02 18:45:42   [23439695 ms] MUTANT_70{1 (RSC, 3, 5)}, 122.0, [0]
2020-01-02 18:45:42   [23439696 ms] MUTANT_71{1 (IRC, 2, 1)}, 122.0, [0]
2020-01-02 18:45:42   [23439696 ms] MUTANT_72{1 (RLO, 1, 1)}, 122.0, [0]
2020-01-02 18:45:42   [23439696 ms] MUTANT_73{1 (RAF, 2, 6)}, 36.0, [1]
2020-01-02 18:45:42   [23439696 ms] MUTANT_74{1 (RLO, 5, 1)}, 122.0, [0]
2020-01-02 18:45:42   [23439696 ms] MUTANT_75{1 (RSC, 4, 5)}, 36.0, [1]
2020-01-02 18:45:42   [23439697 ms] MUTANT_76{1 (RNO, 9, 1)}, 36.0, [1]
2020-01-02 18:45:42   [23439697 ms] MUTANT_77{1 (PRE, 2, 1)}, 36.0, [1]
2020-01-02 18:45:42   [23439697 ms] MUTANT_78{1 (RAF, 3, 3)}, 122.0, [0]
2020-01-02 18:45:42   [23439697 ms] MUTANT_79{1 (RAF, 1, 7)}, 36.0, [1]
2020-01-02 18:45:42   [23439698 ms] MUTANT_80{1 (RAF, 2, 9)}, 36.0, [1]
2020-01-02 18:45:42   [23439698 ms] MUTANT_81{1 (RAF, 3, 6)}, 36.0, [1]
2020-01-02 18:45:42   [23439698 ms] MUTANT_82{1 (PFP, 3, 1)}, 122.0, [0]
2020-01-02 18:45:42   [23439698 ms] MUTANT_83{1 (RSC, 3, 3)}, 36.0, [1]
2020-01-02 18:45:42   [23439698 ms] MUTANT_84{1 (RNO, 4, 2)}, 36.0, [1]
2020-01-02 18:45:42   [23439699 ms] MUTANT_85{1 (RSC, 1, 1)}, 122.0, [0]
2020-01-02 18:45:42   [23439699 ms] MUTANT_86{1 (RNO, 3, 2)}, 122.0, [0]
2020-01-02 18:45:42   [23439699 ms] MUTANT_87{1 (RAF, 1, 4)}, 36.0, [1]
2020-01-02 18:45:42   [23439699 ms] MUTANT_88{1 (RSC, 4, 3)}, 36.0, [1]
2020-01-02 18:45:42   [23439699 ms] MUTANT_89{1 (RAF, 1, 1)}, 36.0, [1]
2020-01-02 18:45:42   [23439700 ms] MUTANT_90{1 (RLO, 6, 1)}, 122.0, [0]
2020-01-02 18:45:42   [23439700 ms] MUTANT_91{1 (POC, 1, 1)}, 36.0, [1]
2020-01-02 18:45:42   [23439700 ms] MUTANT_92{1 (RNO, 1, 1)}, 36.0, [1]
2020-01-02 18:45:42   [23439700 ms] MUTANT_93{1 (RAF, 1, 14)}, 36.0, [1]
2020-01-02 18:45:42   [23439701 ms] MUTANT_94{1 (RSC, 5, 3)}, 36.0, [1]
2020-01-02 18:45:42   [23439701 ms] MUTANT_95{1 (RAF, 2, 15)}, 36.0, [1]
2020-01-02 18:45:42   [23439701 ms] MUTANT_96{1 (RNO, 5, 2)}, 122.0, [0]
2020-01-02 18:45:42   [23439701 ms] MUTANT_97{1 (RAO, 1, 4)}, 122.0, [0]
2020-01-02 18:45:42   [23439701 ms] MUTANT_98{1 (RAF, 3, 12)}, 122.0, [0]
2020-01-02 18:45:42   [23439702 ms] MUTANT_99{1 (RAF, 1, 11)}, 36.0, [1]
2020-01-02 18:45:42   [23439702 ms] MUTANT_100{1 (RNO, 2, 1)}, 36.0, [1]
2020-01-02 18:45:42   [23439702 ms] MUTANT_101{1 (INC, 1, 1)}, 122.0, [0]
2020-01-02 18:45:42   [23439702 ms] MUTANT_102{1 (PFP, 2, 1)}, 36.0, [1]
2020-01-02 18:45:42   [23439703 ms] MUTANT_103{1 (RAF, 3, 15)}, 36.0, [1]
2020-01-02 18:45:42   [23439703 ms] MUTANT_104{1 (RAO, 1, 1)}, 36.0, [1]
2020-01-02 18:45:42   [23439703 ms] MUTANT_105{1 (RAF, 2, 5)}, 36.0, [1]
2020-01-02 18:45:42   [23439703 ms] MUTANT_106{1 (RLO, 7, 1)}, 36.0, [1]
2020-01-02 18:45:42   [23439703 ms] MUTANT_107{1 (RSC, 2, 2)}, 36.0, [1]
