"","strong","techLeft","techRight","p.value.twosided","p.value.less","p.value.greater"
"1",0.3,"IEMT_05","BEMT_05",0.458866317688532,0.775034242751476,0.229433158844266
"2",0.45,"IEMT_05","BEMT_05",0.0013288775260157,0.999369023785675,0.000664438763007849
"3",0.6,"IEMT_05","BEMT_05",0.00938405836526295,0.995506365144688,0.00469202918263148
"4",0.75,"IEMT_05","BEMT_05",4.7987003377688e-05,0.999977485092256,2.3993501688844e-05
"5",0.9,"IEMT_05","BEMT_05",1.62517066114519e-07,0.999999925024981,8.12585330572596e-08
"6",0.3,"IEMT_10","BEMT_10",0.114922625082824,0.944223359297825,0.0574613125414121
"7",0.45,"IEMT_10","BEMT_10",0.00941373748981132,0.995492005329957,0.00470686874490566
"8",0.6,"IEMT_10","BEMT_10",0.0148855179302984,0.992856311998493,0.0074427589651492
"9",0.75,"IEMT_10","BEMT_10",6.37992736926472e-05,0.999970037723748,3.18996368463236e-05
"10",0.9,"IEMT_10","BEMT_10",4.03566860772692e-07,0.999999813341997,2.01783430386346e-07
"11",0.3,"IEMT_15","BEMT_15",0.683656605996812,0.341828302998406,0.663595462406237
"12",0.45,"IEMT_15","BEMT_15",0.0125701102582394,0.993972552730903,0.0062850551291197
"13",0.6,"IEMT_15","BEMT_15",0.000565195877951592,0.99973252631935,0.000282597938975796
"14",0.75,"IEMT_15","BEMT_15",6.38125567256443e-06,0.999997025149562,3.19062783628222e-06
"15",0.9,"IEMT_15","BEMT_15",3.60465234554477e-08,0.999999983434556,1.80232617277239e-08
"16",0.3,"IEMT_20","BEMT_20",0.342511433952533,0.171255716976266,0.832488609356257
"17",0.45,"IEMT_20","BEMT_20",0.158931153905369,0.922704893930817,0.0794655769526843
"18",0.6,"IEMT_20","BEMT_20",0.0374761739606502,0.981929900904988,0.0187380869803251
"19",0.75,"IEMT_20","BEMT_20",0.00315307524768806,0.99849740011208,0.00157653762384403
"20",0.9,"IEMT_20","BEMT_20",1.27369139275074e-05,0.999994049592881,6.36845696375371e-06
"21",0.3,"IEMT_25","BEMT_25",0.00140537200381338,0.00070268600190669,0.999333107149692
"22",0.45,"IEMT_25","BEMT_25",0.952788021622341,0.476394010811171,0.529497796934065
"23",0.6,"IEMT_25","BEMT_25",0.00307174551525769,0.998536335634131,0.00153587275762885
"24",0.75,"IEMT_25","BEMT_25",6.04948556806477e-05,0.999971593636698,3.02474278403239e-05
"25",0.9,"IEMT_25","BEMT_25",0.000639314867650534,0.999697290721728,0.000319657433825267
"26",0.3,"IEMT_30","BEMT_30",8.08507060077613e-06,4.04253530038807e-06,0.999996231757222
"27",0.45,"IEMT_30","BEMT_30",0.568456193225208,0.284228096612604,0.720773305852636
"28",0.6,"IEMT_30","BEMT_30",0.219346299878747,0.893078358214691,0.109673149939374
"29",0.75,"IEMT_30","BEMT_30",0.0178092335752693,0.991445813814411,0.00890461678763465
"30",0.9,"IEMT_30","BEMT_30",0.000339266051986374,0.999839736047293,0.000169633025993187
"31",0.3,"IEMT_35","BEMT_35",8.06092296082169e-06,4.03046148041084e-06,0.999996243084519
"32",0.45,"IEMT_35","BEMT_35",0.000740624243385591,0.000370312121692796,0.999649359018068
"33",0.6,"IEMT_35","BEMT_35",0.899864871270649,0.449932435635324,0.555921175586686
"34",0.75,"IEMT_35","BEMT_35",0.0956616514020668,0.95362545158108,0.0478308257010334
"35",0.9,"IEMT_35","BEMT_35",0.00996501535928431,0.99522695159779,0.00498250767964216
"36",0.3,"IEMT_40","BEMT_40",8.06092296082169e-06,4.03046148041084e-06,0.999996243084519
"37",0.45,"IEMT_40","BEMT_40",0.000116611820255085,5.83059101275423e-05,0.999945157880543
"38",0.6,"IEMT_40","BEMT_40",0.279781304176904,0.139890652088452,0.863376654789085
"39",0.75,"IEMT_40","BEMT_40",0.0580345105970959,0.971949178579034,0.0290172552985479
"40",0.9,"IEMT_40","BEMT_40",0.00112358265555118,0.999466822672343,0.000561791327775591
"41",0.3,"IEMT_05","EMT",0.0243683826082208,0.98827681619111,0.0121841913041104
"42",0.45,"IEMT_05","EMT",0.000488973690142257,0.999768703188004,0.000244486845071128
"43",0.6,"IEMT_05","EMT",0.00314091757807584,0.998503247488589,0.00157045878903792
"44",0.75,"IEMT_05","EMT",5.11521648846647e-06,0.999997616751778,2.55760824423324e-06
"45",0.9,"IEMT_05","EMT",3.99929075423109e-07,0.999999815055176,1.99964537711554e-07
"46",0.3,"IEMT_10","EMT",0.00502004871393931,0.997602933601664,0.00251002435696966
"47",0.45,"IEMT_10","EMT",0.00757341463288295,0.99637691362866,0.00378670731644148
"48",0.6,"IEMT_10","EMT",0.00234908482611923,0.998881940090082,0.00117454241305962
"49",0.75,"IEMT_10","EMT",7.04311989462621e-06,0.99999671530365,3.5215599473131e-06
"50",0.9,"IEMT_10","EMT",2.0337942457223e-06,0.999999055065202,1.01689712286115e-06
"51",0.3,"IEMT_15","EMT",0.014045919267464,0.993261839216552,0.00702295963373199
"52",0.45,"IEMT_15","EMT",0.000462339592775425,0.999781347948115,0.000231169796387713
"53",0.6,"IEMT_15","EMT",0.000432640374823968,0.999795453175591,0.000216320187411984
"54",0.75,"IEMT_15","EMT",5.64213091161495e-05,0.999973513256429,2.82106545580747e-05
"55",0.9,"IEMT_15","EMT",6.40536174288563e-07,0.999999703362799,3.20268087144282e-07
"56",0.3,"IEMT_20","EMT",0.13877814907016,0.932563655232135,0.0693890745350799
"57",0.45,"IEMT_20","EMT",0.00918083443663681,0.995604135988239,0.00459041721831841
"58",0.6,"IEMT_20","EMT",0.0306287775537331,0.985247391953326,0.0153143887768666
"59",0.75,"IEMT_20","EMT",0.00125470358105053,0.999404323925525,0.000627351790525263
"60",0.9,"IEMT_20","EMT",0.00017362772381025,0.999918179023152,8.68138619051248e-05
"61",0.3,"IEMT_25","EMT",0.864659961390986,0.432329980695493,0.573490038330912
"62",0.45,"IEMT_25","EMT",0.00722270070720681,0.99654550115429,0.00361135035360341
"63",0.6,"IEMT_25","EMT",3.43082373437703e-05,0.999983919686154,1.71541186718851e-05
"64",0.75,"IEMT_25","EMT",1.6271336348755e-06,0.999999244410734,8.13566817437752e-07
"65",0.9,"IEMT_25","EMT",3.01898690547645e-05,0.999985857374775,1.50949345273822e-05
"66",0.3,"IEMT_30","EMT",0.699902977865488,0.349951488932744,0.655523560769381
"67",0.45,"IEMT_30","EMT",0.0125799763898596,0.993967770978285,0.00628998819492978
"68",0.6,"IEMT_30","EMT",0.0129089375040955,0.993809080870168,0.00645446875204773
"69",0.75,"IEMT_30","EMT",0.00071947253684192,0.999659168770841,0.00035973626842096
"70",0.9,"IEMT_30","EMT",9.1192498391707e-06,0.999995743970872,4.55962491958535e-06
"71",0.3,"IEMT_35","EMT",0.699902977865488,0.349951488932744,0.655523560769381
"72",0.45,"IEMT_35","EMT",0.208199826912182,0.898550780872569,0.104099913456091
"73",0.6,"IEMT_35","EMT",0.103384098478201,0.949857174142686,0.0516920492391006
"74",0.75,"IEMT_35","EMT",0.00372437196466617,0.998223886264303,0.00186218598233309
"75",0.9,"IEMT_35","EMT",0.001209785193697,0.999425759974627,0.000604892596848498
"76",0.3,"IEMT_40","EMT",0.699902977865488,0.349951488932744,0.655523560769381
"77",0.45,"IEMT_40","EMT",0.646064099691768,0.682268205064584,0.323032049845884
"78",0.6,"IEMT_40","EMT",0.354648886163777,0.826498758842521,0.177324443081889
"79",0.75,"IEMT_40","EMT",0.00184039099914674,0.999124915745532,0.000920195499573371
"80",0.9,"IEMT_40","EMT",0.000145424825637659,0.999931511717951,7.27124128188296e-05
"81",0.3,"BEMT_05","EMT",0.0831459679703079,0.959726984547487,0.041572983985154
"82",0.45,"BEMT_05","EMT",0.625106125770621,0.692670201743143,0.31255306288531
"83",0.6,"BEMT_05","EMT",0.656947385699643,0.676859960762617,0.328473692849822
"84",0.75,"BEMT_05","EMT",0.324954584393695,0.841133962831718,0.162477292196848
"85",0.9,"BEMT_05","EMT",0.350429374241072,0.175214687120536,0.828582435270487
"86",0.3,"BEMT_10","EMT",0.0831459679703079,0.959726984547487,0.041572983985154
"87",0.45,"BEMT_10","EMT",0.625106125770621,0.692670201743143,0.31255306288531
"88",0.6,"BEMT_10","EMT",0.656947385699643,0.676859960762617,0.328473692849822
"89",0.75,"BEMT_10","EMT",0.324954584393695,0.841133962831718,0.162477292196848
"90",0.9,"BEMT_10","EMT",0.350429374241072,0.175214687120536,0.828582435270487
"91",0.3,"BEMT_15","EMT",0.000506488193514253,0.999760407458829,0.000253244096757127
"92",0.45,"BEMT_15","EMT",0.1308433704382,0.936444756935921,0.0654216852190999
"93",0.6,"BEMT_15","EMT",0.783996840355338,0.613682991291115,0.391998420177669
"94",0.75,"BEMT_15","EMT",0.386280331753342,0.810893222544283,0.193140165876671
"95",0.9,"BEMT_15","EMT",0.905570905270253,0.452785452635127,0.55308335510404
"96",0.3,"BEMT_20","EMT",0.000506488193514253,0.999760407458829,0.000253244096757127
"97",0.45,"BEMT_20","EMT",0.1308433704382,0.936444756935921,0.0654216852190999
"98",0.6,"BEMT_20","EMT",0.783996840355338,0.613682991291115,0.391998420177669
"99",0.75,"BEMT_20","EMT",0.386280331753342,0.810893222544283,0.193140165876671
"100",0.9,"BEMT_20","EMT",0.905570905270253,0.452785452635127,0.55308335510404
"101",0.3,"BEMT_25","EMT",5.64580824154386e-05,0.999973520844387,2.82290412077193e-05
"102",0.45,"BEMT_25","EMT",0.000644806633358058,0.999694669133987,0.000322403316679029
"103",0.6,"BEMT_25","EMT",0.0778673294911165,0.962299174854023,0.0389336647455582
"104",0.75,"BEMT_25","EMT",0.155373227231657,0.924442735344365,0.0776866136158286
"105",0.9,"BEMT_25","EMT",0.235823304403396,0.884990479019101,0.117911652201698
"106",0.3,"BEMT_30","EMT",5.64580824154386e-05,0.999973520844387,2.82290412077193e-05
"107",0.45,"BEMT_30","EMT",0.000644806633358058,0.999694669133987,0.000322403316679029
"108",0.6,"BEMT_30","EMT",0.0778673294911165,0.962299174854023,0.0389336647455582
"109",0.75,"BEMT_30","EMT",0.155373227231657,0.924442735344365,0.0776866136158286
"110",0.9,"BEMT_30","EMT",0.235823304403396,0.884990479019101,0.117911652201698
"111",0.3,"BEMT_35","EMT",5.63194843333345e-05,0.999973586309626,2.81597421666673e-05
"112",0.45,"BEMT_35","EMT",2.7111011627923e-07,0.999999874859,1.35555058139615e-07
"113",0.6,"BEMT_35","EMT",0.0200597376784568,0.990359137211158,0.0100298688392284
"114",0.75,"BEMT_35","EMT",0.0496297952261536,0.976033228791232,0.0248148976130768
"115",0.9,"BEMT_35","EMT",0.369964315041875,0.818946890264949,0.184982157520937
"116",0.3,"BEMT_40","EMT",5.63194843333345e-05,0.999973586309626,2.81597421666673e-05
"117",0.45,"BEMT_40","EMT",2.7111011627923e-07,0.999999874859,1.35555058139615e-07
"118",0.6,"BEMT_40","EMT",0.0200597376784568,0.990359137211158,0.0100298688392284
"119",0.75,"BEMT_40","EMT",0.0496297952261536,0.976033228791232,0.0248148976130768
"120",0.9,"BEMT_40","EMT",0.369964315041875,0.818946890264949,0.184982157520937
